juan_sdp/Tarea2_3/simulation/qsim/lights_game_fsm.msim.vcd
$comment
	File created using the following command:
		vcd file lights_game_fsm.msim.vcd -direction
$end
$date
	Sun Nov 14 00:01:29 2021
$end
$version
	ModelSim Version 10.5b
$end
$timescale
	1ps
$end

$scope module lights_game_fsm_vlg_vec_tst $end
$var reg 1 ! button1 $end
$var reg 1 " button2 $end
$var reg 1 # clk $end
$var reg 1 $ enable $end
$var reg 1 % modo $end
$var reg 1 & reset $end
$var wire 1 ' leds_green [7] $end
$var wire 1 ( leds_green [6] $end
$var wire 1 ) leds_green [5] $end
$var wire 1 * leds_green [4] $end
$var wire 1 + leds_green [3] $end
$var wire 1 , leds_green [2] $end
$var wire 1 - leds_green [1] $end
$var wire 1 . leds_green [0] $end
$var wire 1 / leds_red [7] $end
$var wire 1 0 leds_red [6] $end
$var wire 1 1 leds_red [5] $end
$var wire 1 2 leds_red [4] $end
$var wire 1 3 leds_red [3] $end
$var wire 1 4 leds_red [2] $end
$var wire 1 5 leds_red [1] $end
$var wire 1 6 leds_red [0] $end

$scope module i1 $end
$var wire 1 7 gnd $end
$var wire 1 8 vcc $end
$var wire 1 9 unknown $end
$var tri1 1 : devclrn $end
$var tri1 1 ; devpor $end
$var tri1 1 < devoe $end
$var wire 1 = leds_red[0]~output_o $end
$var wire 1 > leds_red[1]~output_o $end
$var wire 1 ? leds_red[2]~output_o $end
$var wire 1 @ leds_red[3]~output_o $end
$var wire 1 A leds_red[4]~output_o $end
$var wire 1 B leds_red[5]~output_o $end
$var wire 1 C leds_red[6]~output_o $end
$var wire 1 D leds_red[7]~output_o $end
$var wire 1 E leds_green[0]~output_o $end
$var wire 1 F leds_green[1]~output_o $end
$var wire 1 G leds_green[2]~output_o $end
$var wire 1 H leds_green[3]~output_o $end
$var wire 1 I leds_green[4]~output_o $end
$var wire 1 J leds_green[5]~output_o $end
$var wire 1 K leds_green[6]~output_o $end
$var wire 1 L leds_green[7]~output_o $end
$var wire 1 M clk~input_o $end
$var wire 1 N clk~inputclkctrl_outclk $end
$var wire 1 O reset~input_o $end
$var wire 1 P button1~input_o $end
$var wire 1 Q button2~input_o $end
$var wire 1 R buttons|enable~0_combout $end
$var wire 1 S buttons|state~q $end
$var wire 1 T counter_up_down|count[0]~3_combout $end
$var wire 1 U counter_up_down|count[0]~4_combout $end
$var wire 1 V buttons|up_down~0_combout $end
$var wire 1 W counter_up_down|count[1]~6_cout $end
$var wire 1 X counter_up_down|count[1]~7_combout $end
$var wire 1 Y counter_up_down|count[1]~8 $end
$var wire 1 Z counter_up_down|count[2]~9_combout $end
$var wire 1 [ counter_up_down|count[2]~10 $end
$var wire 1 \ counter_up_down|count[3]~11_combout $end
$var wire 1 ] variable_counter|cuenta~3_combout $end
$var wire 1 ^ counter2|count[0]~24_combout $end
$var wire 1 _ enable~input_o $end
$var wire 1 ` counter2|count[6]~26_combout $end
$var wire 1 a counter2|count[0]~25 $end
$var wire 1 b counter2|count[1]~27_combout $end
$var wire 1 c counter2|count[1]~28 $end
$var wire 1 d counter2|count[2]~29_combout $end
$var wire 1 e counter2|count[2]~30 $end
$var wire 1 f counter2|count[3]~31_combout $end
$var wire 1 g counter2|count[3]~32 $end
$var wire 1 h counter2|count[4]~33_combout $end
$var wire 1 i counter2|count[4]~34 $end
$var wire 1 j counter2|count[5]~35_combout $end
$var wire 1 k counter2|count[5]~36 $end
$var wire 1 l counter2|count[6]~37_combout $end
$var wire 1 m counter2|count[6]~38 $end
$var wire 1 n counter2|count[7]~39_combout $end
$var wire 1 o counter2|count[7]~40 $end
$var wire 1 p counter2|count[8]~41_combout $end
$var wire 1 q counter2|count[8]~42 $end
$var wire 1 r counter2|count[9]~43_combout $end
$var wire 1 s counter2|count[9]~44 $end
$var wire 1 t counter2|count[10]~45_combout $end
$var wire 1 u counter2|count[10]~46 $end
$var wire 1 v counter2|count[11]~47_combout $end
$var wire 1 w counter2|TC~9_combout $end
$var wire 1 x counter2|TC~8_combout $end
$var wire 1 y counter2|TC~2_combout $end
$var wire 1 z counter2|count[11]~48 $end
$var wire 1 { counter2|count[12]~49_combout $end
$var wire 1 | counter2|count[12]~50 $end
$var wire 1 } counter2|count[13]~51_combout $end
$var wire 1 ~ counter2|count[13]~52 $end
$var wire 1 !! counter2|count[14]~53_combout $end
$var wire 1 "! counter2|count[14]~54 $end
$var wire 1 #! counter2|count[15]~55_combout $end
$var wire 1 $! counter2|count[15]~56 $end
$var wire 1 %! counter2|count[16]~57_combout $end
$var wire 1 &! counter2|count[16]~58 $end
$var wire 1 '! counter2|count[17]~59_combout $end
$var wire 1 (! counter2|count[17]~60 $end
$var wire 1 )! counter2|count[18]~61_combout $end
$var wire 1 *! counter2|count[18]~62 $end
$var wire 1 +! counter2|count[19]~63_combout $end
$var wire 1 ,! counter2|count[19]~64 $end
$var wire 1 -! counter2|count[20]~65_combout $end
$var wire 1 .! counter2|count[20]~66 $end
$var wire 1 /! counter2|count[21]~67_combout $end
$var wire 1 0! counter2|count[21]~68 $end
$var wire 1 1! counter2|count[22]~69_combout $end
$var wire 1 2! counter2|TC~3_combout $end
$var wire 1 3! counter2|TC~10_combout $end
$var wire 1 4! counter2|TC~1_combout $end
$var wire 1 5! counter2|TC~0_combout $end
$var wire 1 6! counter2|TC~4_combout $end
$var wire 1 7! counter2|count[22]~70 $end
$var wire 1 8! counter2|count[23]~71_combout $end
$var wire 1 9! counter2|TC~12_combout $end
$var wire 1 :! counter2|TC~11_combout $end
$var wire 1 ;! counter2|TC~13_combout $end
$var wire 1 <! counter2|TC~5_combout $end
$var wire 1 =! counter2|TC~6_combout $end
$var wire 1 >! counter2|TC~7_combout $end
$var wire 1 ?! counter2|TC~14_combout $end
$var wire 1 @! variable_counter|cuenta~5_combout $end
$var wire 1 A! modo~input_o $end
$var wire 1 B! variable_counter|Add0~0_combout $end
$var wire 1 C! variable_counter|cuenta~4_combout $end
$var wire 1 D! variable_counter|Equal0~0_combout $end
$var wire 1 E! variable_counter|Equal0~1_combout $end
$var wire 1 F! variable_counter|Equal0~2_combout $end
$var wire 1 G! variable_counter|Equal0~3_combout $end
$var wire 1 H! variable_counter|cuenta~2_combout $end
$var wire 1 I! luces|state~16_combout $end
$var wire 1 J! variable_counter|TC~combout $end
$var wire 1 K! luces|state~9_q $end
$var wire 1 L! luces|state~15_combout $end
$var wire 1 M! luces|state~8_q $end
$var wire 1 N! luces|state~14_combout $end
$var wire 1 O! luces|state~7_q $end
$var wire 1 P! luces|Selector0~0_combout $end
$var wire 1 Q! luces|state~5_q $end
$var wire 1 R! luces|state~13_combout $end
$var wire 1 S! luces|state~6_q $end
$var wire 1 T! luces|state.S9~0_combout $end
$var wire 1 U! luces|Selector6~0_combout $end
$var wire 1 V! luces|state~11_q $end
$var wire 1 W! luces|Selector5~0_combout $end
$var wire 1 X! luces|state~10_q $end
$var wire 1 Y! luces|state.S9~1_combout $end
$var wire 1 Z! luces|Selector7~0_combout $end
$var wire 1 [! luces|Selector7~1_combout $end
$var wire 1 \! luces|state_up_down~q $end
$var wire 1 ]! luces|state~12_combout $end
$var wire 1 ^! luces|state~4_q $end
$var wire 1 _! counter_up_down|count [3] $end
$var wire 1 `! counter_up_down|count [2] $end
$var wire 1 a! counter_up_down|count [1] $end
$var wire 1 b! counter_up_down|count [0] $end
$var wire 1 c! variable_counter|cuenta [3] $end
$var wire 1 d! variable_counter|cuenta [2] $end
$var wire 1 e! variable_counter|cuenta [1] $end
$var wire 1 f! variable_counter|cuenta [0] $end
$var wire 1 g! counter2|count [23] $end
$var wire 1 h! counter2|count [22] $end
$var wire 1 i! counter2|count [21] $end
$var wire 1 j! counter2|count [20] $end
$var wire 1 k! counter2|count [19] $end
$var wire 1 l! counter2|count [18] $end
$var wire 1 m! counter2|count [17] $end
$var wire 1 n! counter2|count [16] $end
$var wire 1 o! counter2|count [15] $end
$var wire 1 p! counter2|count [14] $end
$var wire 1 q! counter2|count [13] $end
$var wire 1 r! counter2|count [12] $end
$var wire 1 s! counter2|count [11] $end
$var wire 1 t! counter2|count [10] $end
$var wire 1 u! counter2|count [9] $end
$var wire 1 v! counter2|count [8] $end
$var wire 1 w! counter2|count [7] $end
$var wire 1 x! counter2|count [6] $end
$var wire 1 y! counter2|count [5] $end
$var wire 1 z! counter2|count [4] $end
$var wire 1 {! counter2|count [3] $end
$var wire 1 |! counter2|count [2] $end
$var wire 1 }! counter2|count [1] $end
$var wire 1 ~! counter2|count [0] $end
$upscope $end
$upscope $end
$enddefinitions $end
#0
$dumpvars
0!
0"
0#
0$
1%
1&
0.
0-
0,
0+
0*
0)
0(
0'
06
05
04
03
02
01
00
0/
07
18
x9
1:
1;
1<
0=
0>
0?
0@
0A
0B
0C
0D
0E
0F
0G
0H
0I
0J
0K
0L
0M
0N
1O
0P
0Q
1R
0S
1T
1U
1V
0W
1X
1Y
1Z
0[
1\
0]
1^
0_
0`
0a
0b
1c
0d
0e
0f
1g
0h
0i
0j
1k
0l
0m
0n
1o
0p
0q
0r
1s
0t
0u
0v
0w
0x
1y
1z
0{
0|
0}
1~
0!!
0"!
0#!
1$!
0%!
0&!
0'!
1(!
0)!
0*!
0+!
1,!
0-!
0.!
0/!
10!
01!
12!
03!
04!
05!
06!
07!
08!
09!
0:!
0;!
0<!
0=!
0>!
1?!
0@!
1A!
0B!
0C!
0D!
0E!
0F!
1G!
0H!
0I!
1J!
0K!
0L!
0M!
0N!
0O!
0P!
0Q!
0R!
0S!
1T!
1U!
0V!
0W!
0X!
1Y!
0Z!
0[!
0\!
0]!
0^!
0b!
0a!
0`!
0_!
0f!
0e!
0d!
0c!
0~!
0}!
0|!
0{!
0z!
0y!
0x!
0w!
0v!
0u!
0t!
0s!
0r!
0q!
0p!
0o!
0n!
0m!
0l!
0k!
0j!
0i!
0h!
0g!
$end
#10000
1#
1M
1N
1S
1V!
1_!
1`!
1a!
1b!
1=
1>
1?
1@
1L
0T
0Y!
1E!
0G!
1[
1D!
0Y
1F!
1W
1'
13
14
15
16
1[!
1W!
0\
0Z
0X
0U
0J!
1U
0U!
1H!
1\
1Z
1X
#20000
0#
0M
0N
#30000
1#
1M
1N
1f!
1A
12
0H!
1]
#40000
0&
1$
0#
0O
1_
0M
0N
1`
1T
15!
16!
0U
0?!
0S
0f!
0V!
0L
0A
1Y!
02
0'
1H!
0]
0[!
0W!
1U!
#50000
1#
1M
1N
0_!
0`!
0a!
0b!
0=
0>
0?
0@
0D!
0W
03
04
05
06
0\
0Z
0X
0E!
1Y
1X
0F!
0[
1Z
1G!
1\
0H!
#60000
0#
0M
0N
#70000
1#
1M
1N
#80000
0#
0M
0N
#90000
1#
1M
1N
#100000
1!
0#
1P
0M
0N
0V
0\
0Z
0X
#110000
1#
1M
1N
#120000
0#
0M
0N
#130000
1#
1M
1N
#140000
0#
0M
0N
#150000
0!
1#
0P
1M
1N
1V
1\
1Z
1X
#160000
0#
0M
0N
#170000
1#
1M
1N
#180000
0#
0M
0N
#190000
1#
1M
1N
#200000
0#
0M
0N
#210000
1#
1M
1N
#220000
0#
0M
0N
#230000
1#
1M
1N
#240000
0#
0M
0N
#250000
1#
1M
1N
#260000
0#
0M
0N
#270000
1#
1M
1N
#280000
0#
0M
0N
#290000
1#
1M
1N
#300000
0#
0M
0N
#310000
1#
1M
1N
#320000
0#
0M
0N
#330000
1#
1M
1N
#340000
0#
0M
0N
#350000
1#
1M
1N
#360000
0#
0M
0N
#370000
1#
1M
1N
#380000
0#
0M
0N
#390000
1#
1M
1N
#400000
1!
0#
1P
0M
0N
0V
0\
0Z
0X
#410000
1#
1M
1N
#420000
0#
0M
0N
#430000
1#
1M
1N
#440000
0#
0M
0N
#450000
0!
1#
0P
1M
1N
1V
1\
1Z
1X
#460000
0#
0M
0N
#470000
1#
1M
1N
#480000
0#
0M
0N
#490000
1#
1M
1N
#500000
0#
0M
0N
#510000
1#
1M
1N
#520000
0#
0M
0N
#530000
1#
1M
1N
#540000
0#
0M
0N
#550000
1#
1M
1N
#560000
0#
0M
0N
#570000
1#
1M
1N
#580000
0#
0M
0N
#590000
1#
1M
1N
#600000
0#
0M
0N
#610000
1#
1M
1N
#620000
0#
0M
0N
#630000
1#
1M
1N
#640000
0#
0M
0N
#650000
1#
1M
1N
#660000
0#
0M
0N
#670000
1#
1M
1N
#680000
0#
0M
0N
#690000
1#
1M
1N
#700000
0#
0M
0N
#710000
1!
1#
1P
1M
1N
0V
0\
0Z
0X
#720000
0#
0M
0N
#730000
1#
1M
1N
#740000
0#
0M
0N
#750000
0!
1#
0P
1M
1N
1V
1\
1Z
1X
#760000
0#
0M
0N
#770000
1#
1M
1N
#780000
0#
0M
0N
#790000
1#
1M
1N
#800000
0#
0M
0N
#810000
1#
1M
1N
#820000
0#
0M
0N
#830000
1#
1M
1N
#840000
0#
0M
0N
#850000
1#
1M
1N
#860000
0#
0M
0N
#870000
1#
1M
1N
#880000
0#
0M
0N
#890000
1#
1M
1N
#900000
0#
0M
0N
#910000
0$
1#
0_
1M
1N
05!
06!
1?!
1J!
#920000
0#
0M
0N
#930000
1#
1M
1N
#940000
0#
0M
0N
#950000
1#
1M
1N
#960000
1&
0#
1O
0M
0N
0`
1U
#970000
1#
1M
1N
1S
1V!
1_!
1`!
1a!
1b!
1=
1>
1?
1@
1L
0T
0Y!
1E!
0G!
1[
1D!
0Y
1F!
1W
1'
13
14
15
16
1[!
1W!
0\
0Z
0X
0U
0J!
1U
0U!
1H!
1\
1Z
1X
#980000
1$
0#
1_
0M
0N
15!
1`
16!
0?!
#990000
1!
1#
1P
1M
1N
1~!
1a
0^
1b
