juan_sdp/Tarea3/simulation/qsim/VGA_controller.msim.vcd
$comment
	File created using the following command:
		vcd file VGA_controller.msim.vcd -direction
$end
$date
	Tue Nov 16 08:07:55 2021
$end
$version
	ModelSim Version 10.5b
$end
$timescale
	1ps
$end

$scope module lcd_sync_vlg_vec_tst $end
$var reg 1 ! CLK $end
$var reg 1 " RST_N $end
$var wire 1 # DEN $end
$var wire 1 $ GREST $end
$var wire 1 % HD $end
$var wire 1 & NCLK $end
$var wire 1 ' VD $end
$var wire 1 ( columna [9] $end
$var wire 1 ) columna [8] $end
$var wire 1 * columna [7] $end
$var wire 1 + columna [6] $end
$var wire 1 , columna [5] $end
$var wire 1 - columna [4] $end
$var wire 1 . columna [3] $end
$var wire 1 / columna [2] $end
$var wire 1 0 columna [1] $end
$var wire 1 1 columna [0] $end
$var wire 1 2 fila [10] $end
$var wire 1 3 fila [9] $end
$var wire 1 4 fila [8] $end
$var wire 1 5 fila [7] $end
$var wire 1 6 fila [6] $end
$var wire 1 7 fila [5] $end
$var wire 1 8 fila [4] $end
$var wire 1 9 fila [3] $end
$var wire 1 : fila [2] $end
$var wire 1 ; fila [1] $end
$var wire 1 < fila [0] $end

$scope module i1 $end
$var wire 1 = gnd $end
$var wire 1 > vcc $end
$var wire 1 ? unknown $end
$var tri1 1 @ devclrn $end
$var tri1 1 A devpor $end
$var tri1 1 B devoe $end
$var wire 1 C ~ALTERA_ASDO_DATA1~~ibuf_o $end
$var wire 1 D ~ALTERA_ASDO_DATA1~~padout $end
$var wire 1 E ~ALTERA_FLASH_nCE_nCSO~~ibuf_o $end
$var wire 1 F ~ALTERA_FLASH_nCE_nCSO~~padout $end
$var wire 1 G ~ALTERA_DCLK~~padout $end
$var wire 1 H ~ALTERA_DATA0~~ibuf_o $end
$var wire 1 I ~ALTERA_DATA0~~padout $end
$var wire 1 J ~ALTERA_nCEO~~padout $end
$var wire 1 K ~ALTERA_DCLK~~obuf_o $end
$var wire 1 L ~ALTERA_nCEO~~obuf_o $end
$var wire 1 M CLK~input_o $end
$var wire 1 N PLL_VGA_inst|altpll_component|auto_generated|wire_pll1_fbout $end
$var wire 1 O PLL_VGA_inst|altpll_component|auto_generated|wire_pll1_clk[0]~clkctrl_e_NCLK_outclk $end
$var wire 1 P RST_N~input_o $end
$var wire 1 Q PLL_VGA_inst|altpll_component|auto_generated|wire_pll1_clk[0]~clkctrl_outclk $end
$var wire 1 R hcount|count[0]~11_combout $end
$var wire 1 S hcount|count[0]~12 $end
$var wire 1 T hcount|count[1]~13_combout $end
$var wire 1 U hcount|count[1]~14 $end
$var wire 1 V hcount|count[2]~15_combout $end
$var wire 1 W hcount|count[2]~16 $end
$var wire 1 X hcount|count[3]~17_combout $end
$var wire 1 Y hcount|count[3]~18 $end
$var wire 1 Z hcount|count[4]~19_combout $end
$var wire 1 [ hcount|count[4]~20 $end
$var wire 1 \ hcount|count[5]~21_combout $end
$var wire 1 ] hcount|Equal0~1_combout $end
$var wire 1 ^ hcount|count[5]~22 $end
$var wire 1 _ hcount|count[6]~23_combout $end
$var wire 1 ` hcount|count[6]~24 $end
$var wire 1 a hcount|count[7]~25_combout $end
$var wire 1 b hcount|count[7]~26 $end
$var wire 1 c hcount|count[8]~27_combout $end
$var wire 1 d hcount|count[8]~28 $end
$var wire 1 e hcount|count[9]~29_combout $end
$var wire 1 f hcount|count[9]~30 $end
$var wire 1 g hcount|count[10]~31_combout $end
$var wire 1 h hcount|Equal0~2_combout $end
$var wire 1 i hcount|Equal0~0_combout $end
$var wire 1 j hcount|Equal0~3_combout $end
$var wire 1 k vcount|count[0]~10_combout $end
$var wire 1 l vcount|count[4]~20_combout $end
$var wire 1 m vcount|count[0]~11 $end
$var wire 1 n vcount|count[1]~12_combout $end
$var wire 1 o vcount|count[1]~13 $end
$var wire 1 p vcount|count[2]~14_combout $end
$var wire 1 q vcount|count[2]~15 $end
$var wire 1 r vcount|count[3]~16_combout $end
$var wire 1 s vcount|count[3]~17 $end
$var wire 1 t vcount|count[4]~18_combout $end
$var wire 1 u vcount|count[4]~19 $end
$var wire 1 v vcount|count[5]~21_combout $end
$var wire 1 w vcount|count[5]~22 $end
$var wire 1 x vcount|count[6]~23_combout $end
$var wire 1 y vcount|count[6]~24 $end
$var wire 1 z vcount|count[7]~25_combout $end
$var wire 1 { vcount|count[7]~26 $end
$var wire 1 | vcount|count[8]~27_combout $end
$var wire 1 } vcount|count[8]~28 $end
$var wire 1 ~ vcount|count[9]~29_combout $end
$var wire 1 !! vcount|Equal0~1_combout $end
$var wire 1 "! vcount|Equal0~0_combout $end
$var wire 1 #! vcount|Equal0~2_combout $end
$var wire 1 $! LessThan1~0_combout $end
$var wire 1 %! LessThan1~1_combout $end
$var wire 1 &! DEN~0_combout $end
$var wire 1 '! DEN~1_combout $end
$var wire 1 (! LessThan2~0_combout $end
$var wire 1 )! LessThan2~1_combout $end
$var wire 1 *! LessThan0~0_combout $end
$var wire 1 +! LessThan0~1_combout $end
$var wire 1 ,! DEN~2_combout $end
$var wire 1 -! PLL_VGA_inst|altpll_component|auto_generated|wire_pll1_clk [4] $end
$var wire 1 .! PLL_VGA_inst|altpll_component|auto_generated|wire_pll1_clk [3] $end
$var wire 1 /! PLL_VGA_inst|altpll_component|auto_generated|wire_pll1_clk [2] $end
$var wire 1 0! PLL_VGA_inst|altpll_component|auto_generated|wire_pll1_clk [1] $end
$var wire 1 1! PLL_VGA_inst|altpll_component|auto_generated|wire_pll1_clk [0] $end
$var wire 1 2! hcount|count [10] $end
$var wire 1 3! hcount|count [9] $end
$var wire 1 4! hcount|count [8] $end
$var wire 1 5! hcount|count [7] $end
$var wire 1 6! hcount|count [6] $end
$var wire 1 7! hcount|count [5] $end
$var wire 1 8! hcount|count [4] $end
$var wire 1 9! hcount|count [3] $end
$var wire 1 :! hcount|count [2] $end
$var wire 1 ;! hcount|count [1] $end
$var wire 1 <! hcount|count [0] $end
$var wire 1 =! vcount|count [9] $end
$var wire 1 >! vcount|count [8] $end
$var wire 1 ?! vcount|count [7] $end
$var wire 1 @! vcount|count [6] $end
$var wire 1 A! vcount|count [5] $end
$var wire 1 B! vcount|count [4] $end
$var wire 1 C! vcount|count [3] $end
$var wire 1 D! vcount|count [2] $end
$var wire 1 E! vcount|count [1] $end
$var wire 1 F! vcount|count [0] $end
$var wire 1 G! PLL_VGA_inst|altpll_component|auto_generated|pll1_CLK_bus [4] $end
$var wire 1 H! PLL_VGA_inst|altpll_component|auto_generated|pll1_CLK_bus [3] $end
$var wire 1 I! PLL_VGA_inst|altpll_component|auto_generated|pll1_CLK_bus [2] $end
$var wire 1 J! PLL_VGA_inst|altpll_component|auto_generated|pll1_CLK_bus [1] $end
$var wire 1 K! PLL_VGA_inst|altpll_component|auto_generated|pll1_CLK_bus [0] $end
$upscope $end
$upscope $end
$enddefinitions $end
#0
$dumpvars
0!
1"
0#
1$
1%
x&
1'
01
00
0/
0.
0-
0,
0+
0*
0)
0(
0<
0;
0:
09
08
07
06
05
04
03
02
0=
1>
x?
1@
1A
1B
zC
zD
zE
zF
zG
zH
zI
zJ
zK
zL
0M
xN
xO
1P
xQ
1R
0S
0T
1U
0V
0W
0X
1Y
0Z
0[
0\
1]
1^
0_
0`
0a
1b
0c
0d
0e
1f
0g
1h
1i
1j
1k
0l
0m
0n
1o
0p
0q
0r
1s
0t
0u
0v
1w
0x
0y
0z
1{
0|
0}
0~
0!!
1"!
0#!
0$!
0%!
1&!
1'!
1(!
1)!
0*!
1+!
0,!
x1!
x0!
x/!
x.!
x-!
0<!
0;!
0:!
09!
08!
07!
06!
05!
04!
03!
02!
0F!
0E!
0D!
0C!
0B!
0A!
0@!
0?!
0>!
0=!
xK!
xJ!
xI!
xH!
xG!
$end
#833
1N
#10833
0N
#20000
1!
1M
#20833
1N
#30833
0N
#40000
0!
0M
#40833
1N
#50833
0N
#60000
1!
1M
#60833
1N
#80000
0!
0M
#80833
0N
#100000
1!
1M
#100833
1N
#120000
0!
0M
#120833
0N
#140000
1!
1M
#140833
1N
#160000
0!
0M
#160416
0N
#180000
1!
1M
1N
0G!
0H!
0I!
0J!
1K!
11!
00!
0/!
0.!
0-!
1O
1Q
1&
#200000
0!
0M
0N
#220000
1!
1M
0K!
01!
0O
0Q
1N
0&
#240000
0!
0M
0N
#260000
1!
1M
1K!
11!
1O
1Q
1N
1&
1<!
11
1S
0R
1T
#280000
0!
0M
0N
#300000
1!
1M
0K!
01!
0O
0Q
1N
0&
#320000
0!
0M
0N
#340000
1!
1M
1K!
11!
1O
1Q
1N
1&
1;!
0<!
01
10
0U
0S
0T
1R
1U
1V
1T
0V
#360000
0!
0M
0N
#380000
1!
1M
0K!
01!
0O
0Q
1N
0&
#400000
0!
0M
0N
#420000
1!
1M
1K!
11!
1O
1Q
1N
1&
1<!
11
1S
0R
0U
0T
1V
#440000
0!
0M
0N
#460000
1!
1M
0K!
01!
0O
0Q
1N
0&
#480000
0!
0M
0N
#500000
1!
1M
1K!
11!
1O
1Q
1N
1&
1:!
0;!
0<!
01
00
1/
1W
1U
0S
0V
1T
1R
0W
1X
1V
0T
0X
#520000
0!
0M
0N
#540000
1!
1M
0K!
01!
0O
0Q
1N
0&
#560000
0!
0M
0N
#580000
1!
1M
1K!
11!
1O
1Q
1N
1&
1<!
11
1S
0R
1T
#600000
0!
0M
0N
#620000
1!
1M
0K!
01!
0O
0Q
1N
0&
#640000
0!
0M
0N
#660000
1!
1M
1K!
11!
1O
1Q
1N
1&
1;!
0<!
01
10
0U
0S
0T
1R
1W
1U
0V
1T
0W
1X
1V
0X
#680000
0!
0M
0N
#700000
1!
1M
0K!
01!
0O
0Q
1N
0&
#720000
0!
0M
0N
#740000
1!
1M
1K!
11!
1O
1Q
1N
1&
1<!
11
0]
1S
0R
0U
0T
1W
0V
1X
#760000
0!
0M
0N
#780000
1!
1M
0K!
01!
0O
0Q
1N
0&
#800000
0!
0M
0N
#820000
1!
1M
1K!
11!
1O
1Q
1N
1&
19!
0:!
0;!
0<!
01
00
0/
1.
0Y
1]
0W
1U
0S
0X
1V
1T
1R
1Y
1Z
1X
0V
0T
0Z
#840000
0!
0M
0N
#860000
1!
1M
0K!
01!
0O
0Q
1N
0&
#880000
0!
0M
0N
#900000
1!
1M
1K!
11!
1O
1Q
1N
1&
1<!
11
1S
0R
1T
#920000
0!
0M
0N
#940000
1!
1M
0K!
01!
0O
0Q
1N
0&
#960000
0!
0M
0N
#980000
1!
1M
1K!
11!
1O
1Q
1N
1&
1;!
0<!
01
10
0U
0S
0T
1R
1U
1V
1T
0V
#1000000
0!
0M
0N
#1020000
1!
1M
0K!
01!
0O
0Q
1N
0&
#1040000
0!
0M
0N
#1060000
1!
1M
1K!
11!
1O
1Q
1N
1&
1<!
11
1S
0R
0U
0T
1V
#1080000
0!
0M
0N
#1100000
1!
1M
0K!
01!
0O
0Q
1N
0&
#1120000
0!
0M
0N
#1140000
1!
1M
1K!
11!
1O
1Q
1N
1&
1:!
0;!
0<!
01
00
1/
1W
1U
0S
0V
1T
1R
0Y
0W
0X
1V
0T
1Y
1Z
1X
0Z
#1160000
0!
0M
0N
#1180000
1!
1M
0K!
01!
0O
0Q
1N
0&
#1200000
0!
0M
0N
#1220000
1!
1M
1K!
11!
1O
1Q
1N
1&
1<!
11
1S
0R
1T
#1240000
0!
0M
0N
#1260000
1!
1M
0K!
01!
0O
0Q
1N
0&
#1280000
0!
0M
0N
#1300000
1!
1M
1K!
11!
1O
1Q
1N
1&
1;!
0<!
01
10
0U
0S
0T
1R
1W
1U
0V
1T
0Y
0W
0X
1V
1Y
1Z
1X
0Z
#1320000
0!
0M
0N
#1340000
1!
1M
0K!
01!
0O
0Q
1N
0&
#1360000
0!
0M
0N
#1380000
1!
1M
1K!
11!
1O
1Q
1N
1&
1<!
11
0]
1S
0R
0U
0T
1W
0V
0Y
0X
1Z
#1400000
0!
0M
0N
#1420000
1!
1M
0K!
01!
0O
0Q
1N
0&
#1440000
0!
0M
0N
#1460000
1!
1M
1K!
11!
1O
1Q
1N
1&
18!
09!
0:!
0;!
0<!
01
00
0/
0.
1-
1[
1Y
1]
0W
1U
0S
0Z
1X
1V
1T
1R
0[
1\
1Z
0X
0V
0T
0\
#1480000
0!
0M
0N
#1500000
1!
1M
0K!
01!
0O
0Q
1N
0&
#1520000
0!
0M
0N
#1540000
1!
1M
1K!
11!
1O
1Q
1N
1&
1<!
11
1S
0R
1T
#1560000
0!
0M
0N
#1580000
1!
1M
0K!
01!
0O
0Q
1N
0&
#1600000
0!
0M
0N
#1620000
1!
1M
1K!
11!
1O
1Q
1N
1&
1;!
0<!
01
10
0U
0S
0T
1R
1U
1V
1T
0V
#1640000
0!
0M
0N
#1660000
1!
1M
0K!
01!
0O
0Q
1N
0&
#1680000
0!
0M
0N
#1700000
1!
1M
1K!
11!
1O
1Q
1N
1&
1<!
11
1S
0R
0U
0T
1V
#1720000
0!
0M
0N
#1740000
1!
1M
0K!
01!
0O
0Q
1N
0&
#1760000
0!
0M
0N
#1780000
1!
1M
1K!
11!
1O
1Q
1N
1&
1:!
0;!
0<!
01
00
1/
1W
1U
0S
0V
1T
1R
0W
1X
1V
0T
0X
#1800000
0!
0M
0N
#1820000
1!
1M
0K!
01!
0O
0Q
1N
0&
#1840000
0!
0M
0N
#1860000
1!
1M
1K!
11!
1O
1Q
1N
1&
1<!
11
1S
0R
1T
#1880000
0!
0M
0N
#1900000
1!
1M
0K!
01!
0O
0Q
1N
0&
#1920000
0!
0M
0N
#1940000
1!
1M
1K!
11!
1O
1Q
1N
1&
1;!
0<!
01
10
0U
0S
0T
1R
1W
1U
0V
1T
0W
1X
1V
0X
#1960000
0!
0M
0N
#1980000
1!
1M
0K!
01!
0O
0Q
1N
0&
#2000000
0!
0M
0N
#2020000
1!
1M
1K!
11!
1O
1Q
1N
1&
1<!
11
0]
1S
0R
0U
0T
1W
0V
1X
#2040000
0!
0M
0N
#2060000
1!
1M
0K!
01!
0O
0Q
1N
0&
#2080000
0!
0M
0N
#2100000
1!
1M
1K!
11!
1O
1Q
1N
1&
19!
0:!
0;!
0<!
01
00
0/
1.
0i
0Y
1]
0W
1U
0S
0X
1V
1T
1R
1[
1Y
0Z
1X
0V
0T
0[
1\
1Z
0\
#2120000
0!
0M
0N
#2140000
1!
1M
0K!
01!
0O
0Q
1N
0&
#2160000
0!
0M
0N
#2180000
1!
1M
1K!
11!
1O
1Q
1N
1&
1<!
11
1S
0R
1T
#2200000
0!
0M
0N
#2220000
1!
1M
0K!
01!
0O
0Q
1N
0&
#2240000
0!
0M
0N
#2260000
1!
1M
1K!
11!
1O
1Q
1N
1&
1;!
0<!
01
10
0U
0S
0T
1R
1U
1V
1T
0V
#2280000
0!
0M
0N
#2300000
1!
1M
0K!
01!
0O
0Q
1N
0&
#2320000
0!
0M
0N
#2340000
1!
1M
1K!
11!
1O
1Q
1N
1&
1<!
11
1S
0R
0U
0T
1V
#2360000
0!
0M
0N
#2380000
1!
1M
0K!
01!
0O
0Q
1N
0&
#2400000
0!
0M
0N
#2420000
1!
1M
1K!
11!
1O
1Q
1N
1&
1:!
0;!
0<!
01
00
1/
1W
1U
0S
0V
1T
1R
0Y
0W
0X
1V
0T
1[
1Y
0Z
1X
0[
1\
1Z
0\
#2440000
0!
0M
0N
#2460000
1!
1M
0K!
01!
0O
0Q
1N
0&
#2480000
0!
0M
0N
#2500000
1!
1M
1K!
11!
1O
1Q
1N
1&
1<!
11
1S
0R
1T
#2520000
0!
0M
0N
#2540000
1!
1M
0K!
01!
0O
0Q
1N
0&
#2560000
0!
0M
0N
#2580000
1!
1M
1K!
11!
1O
1Q
1N
1&
1;!
0<!
01
10
0U
0S
0T
1R
1W
1U
0V
1T
0Y
0W
0X
1V
1[
1Y
0Z
1X
0[
1\
1Z
0\
#2600000
0!
0M
0N
#2620000
1!
1M
0K!
01!
0O
0Q
1N
0&
#2640000
0!
0M
0N
#2660000
1!
1M
1K!
11!
1O
1Q
1N
1&
1<!
11
0]
1S
0R
0U
0T
1W
0V
0Y
0X
1[
0Z
1\
#2680000
0!
0M
0N
#2700000
1!
1M
0K!
01!
0O
0Q
1N
0&
#2720000
0!
0M
0N
#2740000
1!
1M
1K!
11!
1O
1Q
1N
1&
17!
08!
09!
0:!
0;!
0<!
01
00
0/
0.
0-
1,
1]
0^
1i
0[
1Y
0W
1U
0S
0\
1Z
1X
1V
1T
1R
1^
1_
1\
0Z
0X
0V
0T
0_
#2760000
0!
0M
0N
#2780000
1!
1M
0K!
01!
0O
0Q
1N
0&
#2800000
0!
0M
0N
#2820000
1!
1M
1K!
11!
1O
1Q
1N
1&
1<!
11
1S
0R
1T
#2840000
0!
0M
0N
#2860000
1!
1M
0K!
01!
0O
0Q
1N
0&
#2880000
0!
0M
0N
#2900000
1!
1M
1K!
11!
1O
1Q
1N
1&
1;!
0<!
01
10
0U
0S
0T
1R
1U
1V
1T
0V
#2920000
0!
0M
0N
#2940000
1!
1M
0K!
01!
0O
0Q
1N
0&
#2960000
0!
0M
0N
#2980000
1!
1M
1K!
11!
1O
1Q
1N
1&
1<!
11
1S
0R
0U
0T
1V
#3000000
0!
0M
0N
#3020000
1!
1M
0K!
01!
0O
0Q
1N
0&
#3040000
0!
0M
0N
#3060000
1!
1M
1K!
11!
1O
1Q
1N
1&
1:!
0;!
0<!
01
00
1/
1W
1U
0S
0V
1T
1R
0W
1X
1V
0T
0X
#3080000
0!
0M
0N
#3100000
1!
1M
0K!
01!
0O
0Q
1N
0&
#3120000
0!
0M
0N
#3140000
1!
1M
1K!
11!
1O
1Q
1N
1&
1<!
11
1S
0R
1T
#3160000
0!
0M
0N
#3180000
1!
1M
0K!
01!
0O
0Q
1N
0&
#3200000
0!
0M
0N
#3220000
1!
1M
1K!
11!
1O
1Q
1N
1&
1;!
0<!
01
10
0U
0S
0T
1R
1W
1U
0V
1T
0W
1X
1V
0X
#3240000
0!
0M
0N
#3260000
1!
1M
0K!
01!
0O
0Q
1N
0&
#3280000
0!
0M
0N
#3300000
1!
1M
1K!
11!
1O
1Q
1N
1&
1<!
11
1S
0R
0U
0T
1W
0V
1X
#3320000
0!
0M
0N
#3340000
1!
1M
0K!
01!
0O
0Q
1N
0&
#3360000
0!
0M
0N
#3380000
1!
1M
1K!
11!
1O
1Q
1N
1&
19!
0:!
0;!
0<!
01
00
0/
1.
0Y
0W
1U
0S
0X
1V
1T
1R
1Y
1Z
1X
0V
0T
0Z
#3400000
0!
0M
0N
#3420000
1!
1M
0K!
01!
0O
0Q
1N
0&
#3440000
0!
0M
0N
#3460000
1!
1M
1K!
11!
1O
1Q
1N
1&
1<!
11
1S
0R
1T
#3480000
0!
0M
0N
#3500000
1!
1M
0K!
01!
0O
0Q
1N
0&
#3520000
0!
0M
0N
#3540000
1!
1M
1K!
11!
1O
1Q
1N
1&
1;!
0<!
01
10
0U
0S
0T
1R
1U
1V
1T
0V
#3560000
0!
0M
0N
#3580000
1!
1M
0K!
01!
0O
0Q
1N
0&
#3600000
0!
0M
0N
#3620000
1!
1M
1K!
11!
1O
1Q
1N
1&
1<!
11
1S
0R
0U
0T
1V
#3640000
0!
0M
0N
#3660000
1!
1M
0K!
01!
0O
0Q
1N
0&
#3680000
0!
0M
0N
#3700000
1!
1M
1K!
11!
1O
1Q
1N
1&
1:!
0;!
0<!
01
00
1/
1W
1U
0S
0V
1T
1R
0Y
0W
0X
1V
0T
1Y
1Z
1X
0Z
#3720000
0!
0M
0N
#3740000
1!
1M
0K!
01!
0O
0Q
1N
0&
#3760000
0!
0M
0N
#3780000
1!
1M
1K!
11!
1O
1Q
1N
1&
1<!
11
1S
0R
1T
#3800000
0!
0M
0N
#3820000
1!
1M
0K!
01!
0O
0Q
1N
0&
#3840000
0!
0M
0N
#3860000
1!
1M
1K!
11!
1O
1Q
1N
1&
1;!
0<!
01
10
0U
0S
0T
1R
1W
1U
0V
1T
0Y
0W
0X
1V
1Y
1Z
1X
0Z
#3880000
0!
0M
0N
#3900000
1!
1M
0K!
01!
0O
0Q
1N
0&
#3920000
0!
0M
0N
#3940000
1!
1M
1K!
11!
1O
1Q
1N
1&
1<!
11
1S
0R
0U
0T
1W
0V
0Y
0X
1Z
#3960000
0!
0M
0N
#3980000
1!
1M
0K!
01!
0O
0Q
1N
0&
#4000000
0!
0M
0N
#4020000
1!
1M
1K!
11!
1O
1Q
1N
1&
18!
09!
0:!
0;!
0<!
01
00
0/
0.
1-
1[
1Y
0W
1U
0S
0Z
1X
1V
1T
1R
0^
0[
0\
1Z
0X
0V
0T
1^
1_
1\
0_
#4040000
0!
0M
0N
#4060000
1!
1M
0K!
01!
0O
0Q
1N
0&
#4080000
0!
0M
0N
#4100000
1!
1M
1K!
11!
1O
1Q
1N
1&
1<!
11
1S
0R
1T
#4120000
0!
0M
0N
#4140000
1!
1M
0K!
01!
0O
0Q
1N
0&
#4160000
0!
0M
0N
#4180000
1!
1M
1K!
11!
1O
1Q
1N
1&
1;!
0<!
01
10
0U
0S
0T
1R
1U
1V
1T
0V
#4200000
0!
0M
0N
#4220000
1!
1M
0K!
01!
0O
0Q
1N
0&
#4240000
0!
0M
0N
#4260000
1!
1M
1K!
11!
1O
1Q
1N
1&
1<!
11
1S
0R
0U
0T
1V
#4280000
0!
0M
0N
#4300000
1!
1M
0K!
01!
0O
0Q
1N
0&
#4320000
0!
0M
0N
#4340000
1!
1M
1K!
11!
1O
1Q
1N
1&
1:!
0;!
0<!
01
00
1/
1W
1U
0S
0V
1T
1R
0W
1X
1V
0T
0X
#4360000
0!
0M
0N
#4380000
1!
1M
0K!
01!
0O
0Q
1N
0&
#4400000
0!
0M
0N
#4420000
1!
1M
1K!
11!
1O
1Q
1N
1&
1<!
11
1S
0R
1T
#4440000
0!
0M
0N
#4460000
1!
1M
0K!
01!
0O
0Q
1N
0&
#4480000
0!
0M
0N
#4500000
1!
1M
1K!
11!
1O
1Q
1N
1&
1;!
0<!
01
10
0U
0S
0T
1R
1W
1U
0V
1T
0W
1X
1V
0X
#4520000
0!
0M
0N
#4540000
1!
1M
0K!
01!
0O
0Q
1N
0&
#4560000
0!
0M
0N
#4580000
1!
1M
1K!
11!
1O
1Q
1N
1&
1<!
11
1S
0R
0U
0T
1W
0V
1X
#4600000
0!
0M
0N
#4620000
1!
1M
0K!
01!
0O
0Q
1N
0&
#4640000
0!
0M
0N
#4660000
1!
1M
1K!
11!
1O
1Q
1N
1&
19!
0:!
0;!
0<!
01
00
0/
1.
0i
0Y
0W
1U
0S
0X
1V
1T
1R
1[
1Y
0Z
1X
0V
0T
0^
0[
0\
1Z
1^
1_
1\
0_
#4680000
0!
0M
0N
#4700000
1!
1M
0K!
01!
0O
0Q
1N
0&
#4720000
0!
0M
0N
#4740000
1!
1M
1K!
11!
1O
1Q
1N
1&
1<!
11
1S
0R
1T
#4760000
0!
0M
0N
#4780000
1!
1M
0K!
01!
0O
0Q
1N
0&
#4800000
0!
0M
0N
#4820000
1!
1M
1K!
11!
1O
1Q
1N
1&
1;!
0<!
01
10
0U
0S
0T
1R
1U
1V
1T
0V
#4840000
0!
0M
0N
#4860000
1!
1M
0K!
01!
0O
0Q
1N
0&
#4880000
0!
0M
0N
#4900000
1!
1M
1K!
11!
1O
1Q
1N
1&
1<!
11
1S
0R
0U
0T
1V
#4920000
0!
0M
0N
#4940000
1!
1M
0K!
01!
0O
0Q
1N
0&
#4960000
0!
0M
0N
#4980000
1!
1M
1K!
11!
1O
1Q
1N
1&
1:!
0;!
0<!
01
00
1/
1W
1U
0S
0V
1T
1R
0Y
0W
0X
1V
0T
1[
1Y
0Z
1X
0^
0[
0\
1Z
1^
1_
1\
0_
#5000000
0!
0M
0N
#5020000
1!
1M
0K!
01!
0O
0Q
1N
0&
#5040000
0!
0M
0N
#5060000
1!
1M
1K!
11!
1O
1Q
1N
1&
1<!
11
1S
0R
1T
#5080000
0!
0M
0N
#5100000
1!
1M
0K!
01!
0O
0Q
1N
0&
#5120000
0!
0M
0N
#5140000
1!
1M
1K!
11!
1O
1Q
1N
1&
1;!
0<!
01
10
0U
0S
0T
1R
1W
1U
0V
1T
0Y
0W
0X
1V
1[
1Y
0Z
1X
0^
0[
0\
1Z
1^
1_
1\
0_
#5160000
0!
0M
0N
#5180000
1!
1M
0K!
01!
0O
0Q
1N
0&
#5200000
0!
0M
0N
#5220000
1!
1M
1K!
11!
1O
1Q
1N
1&
1<!
11
1S
0R
0U
0T
1W
0V
0Y
0X
1[
0Z
0^
0\
1_
#5240000
0!
0M
0N
#5260000
1!
1M
0K!
01!
0O
0Q
1N
0&
#5280000
0!
0M
0N
#5300000
1!
1M
1K!
11!
1O
1Q
1N
1&
16!
07!
08!
09!
0:!
0;!
0<!
01
00
0/
0.
0-
0,
1+
1`
1^
1i
0[
1Y
0W
1U
0S
0_
1\
1Z
1X
1V
1T
1R
0`
1a
1_
0\
0Z
0X
0V
0T
0a
#5320000
0!
0M
0N
#5340000
1!
1M
0K!
01!
0O
0Q
1N
0&
#5360000
0!
0M
0N
#5380000
1!
1M
1K!
11!
1O
1Q
1N
1&
1<!
11
1S
0R
1T
#5400000
0!
0M
0N
#5420000
1!
1M
0K!
01!
0O
0Q
1N
0&
#5440000
0!
0M
0N
#5460000
1!
1M
1K!
11!
1O
1Q
1N
1&
1;!
0<!
01
10
0U
0S
0T
1R
1U
1V
1T
0V
#5480000
0!
0M
0N
#5500000
1!
1M
0K!
01!
0O
0Q
1N
0&
#5520000
0!
0M
0N
#5540000
1!
1M
1K!
11!
1O
1Q
1N
1&
1<!
11
1S
0R
0U
0T
1V
#5560000
0!
0M
0N
#5580000
1!
1M
0K!
01!
0O
0Q
1N
0&
#5600000
0!
0M
0N
#5620000
1!
1M
1K!
11!
1O
1Q
1N
1&
1:!
0;!
0<!
01
00
1/
1W
1U
0S
0V
1T
1R
0W
1X
1V
0T
0X
#5640000
0!
0M
0N
#5660000
1!
1M
0K!
01!
0O
0Q
1N
0&
#5680000
0!
0M
0N
#5700000
1!
1M
1K!
11!
1O
1Q
1N
1&
1<!
11
1S
0R
1T
#5720000
0!
0M
0N
#5740000
1!
1M
0K!
01!
0O
0Q
1N
0&
#5760000
0!
0M
0N
#5780000
1!
1M
1K!
11!
1O
1Q
1N
1&
1;!
0<!
01
10
0U
0S
0T
1R
1W
1U
0V
1T
0W
1X
1V
0X
#5800000
0!
0M
0N
#5820000
1!
1M
0K!
01!
0O
0Q
1N
0&
#5840000
0!
0M
0N
#5860000
1!
1M
1K!
11!
1O
1Q
1N
1&
1<!
11
0]
1S
0R
0U
0T
1W
0V
1X
#5880000
0!
0M
0N
#5900000
1!
1M
0K!
01!
0O
0Q
1N
0&
#5920000
0!
0M
0N
#5940000
1!
1M
1K!
11!
1O
1Q
1N
1&
19!
0:!
0;!
0<!
01
00
0/
1.
0Y
1]
0W
1U
0S
0X
1V
1T
1R
1Y
1Z
1X
0V
0T
0Z
#5960000
0!
0M
0N
#5980000
1!
1M
0K!
01!
0O
0Q
1N
0&
#6000000
0!
0M
0N
#6020000
1!
1M
1K!
11!
1O
1Q
1N
1&
1<!
11
1S
0R
1T
#6040000
0!
0M
0N
#6060000
1!
1M
0K!
01!
0O
0Q
1N
0&
#6080000
0!
0M
0N
#6100000
1!
1M
1K!
11!
1O
1Q
1N
1&
1;!
0<!
01
10
0U
0S
0T
1R
1U
1V
1T
0V
#6120000
0!
0M
0N
#6140000
1!
1M
0K!
01!
0O
0Q
1N
0&
#6160000
0!
0M
0N
#6180000
1!
1M
1K!
11!
1O
1Q
1N
1&
1<!
11
1S
0R
0U
0T
1V
#6200000
0!
0M
0N
#6220000
1!
1M
0K!
01!
0O
0Q
1N
0&
#6240000
0!
0M
0N
#6260000
1!
1M
1K!
11!
1O
1Q
1N
1&
1:!
0;!
0<!
01
00
1/
1W
1U
0S
0V
1T
1R
0Y
0W
0X
1V
0T
1Y
1Z
1X
0Z
#6280000
0!
0M
0N
#6300000
1!
1M
0K!
01!
0O
0Q
1N
0&
#6320000
0!
0M
0N
#6340000
1!
1M
1K!
11!
1O
1Q
1N
1&
1<!
11
1S
0R
1T
#6360000
0!
0M
0N
#6380000
1!
1M
0K!
01!
0O
0Q
1N
0&
#6400000
0!
0M
0N
#6420000
1!
1M
1K!
11!
1O
1Q
1N
1&
1;!
0<!
01
10
0U
0S
0T
1R
1W
1U
0V
1T
0Y
0W
0X
1V
1Y
1Z
1X
0Z
#6440000
0!
0M
0N
#6460000
1!
1M
0K!
01!
0O
0Q
1N
0&
#6480000
0!
0M
0N
#6500000
1!
1M
1K!
11!
1O
1Q
1N
1&
1<!
11
0]
1S
0R
0U
0T
1W
0V
0Y
0X
1Z
#6520000
0!
0M
0N
#6540000
1!
1M
0K!
01!
0O
0Q
1N
0&
#6560000
0!
0M
0N
#6580000
1!
1M
1K!
11!
1O
1Q
1N
1&
18!
09!
0:!
0;!
0<!
01
00
0/
0.
1-
1[
1Y
1]
0W
1U
0S
0Z
1X
1V
1T
1R
0[
1\
1Z
0X
0V
0T
0\
#6600000
0!
0M
0N
#6620000
1!
1M
0K!
01!
0O
0Q
1N
0&
#6640000
0!
0M
0N
#6660000
1!
1M
1K!
11!
1O
1Q
1N
1&
1<!
11
1S
0R
1T
#6680000
0!
0M
0N
#6700000
1!
1M
0K!
01!
0O
0Q
1N
0&
#6720000
0!
0M
0N
#6740000
1!
1M
1K!
11!
1O
1Q
1N
1&
1;!
0<!
01
10
0U
0S
0T
1R
1U
1V
1T
0V
#6760000
0!
0M
0N
#6780000
1!
1M
0K!
01!
0O
0Q
1N
0&
#6800000
0!
0M
0N
#6820000
1!
1M
1K!
11!
1O
1Q
1N
1&
1<!
11
1S
0R
0U
0T
1V
