juan_sdp/Counter/simulation/qsim/n_counter.msim.vcd
$comment
	File created using the following command:
		vcd file n_counter.msim.vcd -direction
$end
$date
	Sat Oct 09 20:56:18 2021
$end
$version
	ModelSim Version 10.5b
$end
$timescale
	1ps
$end

$scope module n_counter_vlg_vec_tst $end
$var reg 1 ! clk $end
$var reg 1 " enable $end
$var reg 1 # reset $end
$var reg 1 $ up_down $end
$var wire 1 % TC $end
$var wire 1 & count [3] $end
$var wire 1 ' count [2] $end
$var wire 1 ( count [1] $end
$var wire 1 ) count [0] $end

$scope module i1 $end
$var wire 1 * gnd $end
$var wire 1 + vcc $end
$var wire 1 , unknown $end
$var tri1 1 - devclrn $end
$var tri1 1 . devpor $end
$var tri1 1 / devoe $end
$var wire 1 0 count[0]~output_o $end
$var wire 1 1 count[1]~output_o $end
$var wire 1 2 count[2]~output_o $end
$var wire 1 3 count[3]~output_o $end
$var wire 1 4 TC~output_o $end
$var wire 1 5 clk~input_o $end
$var wire 1 6 clk~inputclkctrl_outclk $end
$var wire 1 7 enable~input_o $end
$var wire 1 8 reset~input_o $end
$var wire 1 9 count[0]~3_combout $end
$var wire 1 : count[0]~reg0_q $end
$var wire 1 ; up_down~input_o $end
$var wire 1 < count[1]~5_cout $end
$var wire 1 = count[1]~6_combout $end
$var wire 1 > count[1]~reg0_q $end
$var wire 1 ? count[1]~7 $end
$var wire 1 @ count[2]~8_combout $end
$var wire 1 A count[2]~reg0_q $end
$var wire 1 B count[2]~9 $end
$var wire 1 C count[3]~10_combout $end
$var wire 1 D count[3]~reg0_q $end
$var wire 1 E TC~0_combout $end
$var wire 1 F TC~1_combout $end
$upscope $end
$upscope $end
$enddefinitions $end
#0
$dumpvars
0!
1"
1#
1$
0%
0)
0(
0'
0&
0*
1+
x,
1-
1.
1/
00
01
02
03
04
05
06
17
18
19
0:
1;
0<
0=
0>
1?
0@
0A
0B
0C
0D
1E
1F
$end
#10000
1!
15
16
1:
10
1<
1)
09
1=
#20000
0!
05
06
#30000
1!
15
16
1>
0:
00
11
0E
0?
0<
1(
0)
0=
19
1?
1@
1=
0@
#40000
0!
05
06
#50000
1!
15
16
1:
10
1<
1)
09
0?
0=
1@
#60000
0!
05
06
#70000
1!
15
16
1A
0>
0:
00
01
12
1E
1B
0F
1?
0<
1'
0(
0)
0@
1=
19
14
1F
0B
1%
1C
1@
0=
04
0%
0C
#80000
0!
05
06
#90000
1!
15
16
1:
10
1<
1)
09
1=
#100000
0!
05
06
#110000
1!
15
16
1>
0:
00
11
0?
0<
1(
0)
0=
19
1B
1?
0@
1=
0B
1C
1@
0C
#120000
0!
05
06
#130000
1!
15
16
1:
10
1<
1)
09
0?
0=
1B
0@
1C
#140000
0!
05
06
#150000
1!
15
16
1D
0A
0>
0:
00
01
02
13
0B
1?
0<
1&
0'
0(
0)
0C
1@
1=
19
1C
0@
0=
#160000
0!
05
06
#170000
1!
15
16
1:
10
1<
1)
09
1=
#180000
0!
05
06
#190000
1!
15
16
1>
0:
00
11
0E
0?
0<
1(
0)
0=
19
1?
1@
1=
0@
#200000
0!
05
06
#210000
1!
15
16
1:
10
1<
1)
09
0?
0=
1@
#220000
0!
05
06
#230000
1!
15
16
1A
0>
0:
00
01
12
1E
1B
1?
0<
1'
0(
0)
0@
1=
19
0B
0C
1@
0=
1C
#240000
0!
05
06
#250000
1!
15
16
1:
10
1<
1)
09
1=
#260000
0!
05
06
#270000
1!
15
16
1>
0:
00
11
0?
0<
1(
0)
0=
19
1B
1?
0@
1=
0B
0C
1@
1C
#280000
0!
05
06
#290000
1!
15
16
1:
10
0F
1<
1)
09
14
0?
1%
0=
1B
0@
0C
#300000
0!
05
06
#310000
1!
15
16
0D
0A
0>
0:
00
01
02
03
1F
0B
1?
0<
0&
0'
0(
0)
1C
1@
1=
19
04
0%
0C
0@
0=
#320000
0!
05
06
#330000
1!
15
16
1:
10
1<
1)
09
1=
#340000
0!
05
06
#350000
1!
15
16
1>
0:
00
11
0E
0?
0<
1(
0)
0=
19
1?
1@
1=
0@
#360000
0!
05
06
#370000
1!
15
16
1:
10
1<
1)
09
0?
0=
1@
#380000
0!
05
06
#390000
1!
15
16
1A
0>
0:
00
01
12
1E
1B
0F
1?
0<
1'
0(
0)
0@
1=
19
14
1F
0B
1%
1C
1@
0=
04
0%
0C
#400000
0!
05
06
#410000
1!
15
16
1:
10
1<
1)
09
1=
#420000
0!
05
06
#430000
1!
15
16
1>
0:
00
11
0?
0<
1(
0)
0=
19
1B
1?
0@
1=
0B
1C
1@
0C
#440000
0!
05
06
#450000
1!
15
16
1:
10
1<
1)
09
0?
0=
1B
0@
1C
#460000
0!
05
06
#470000
1!
15
16
1D
0A
0>
0:
00
01
02
13
0B
1?
0<
1&
0'
0(
0)
0C
1@
1=
19
1C
0@
0=
#480000
0!
05
06
#490000
1!
15
16
1:
10
1<
1)
09
1=
#500000
0!
05
06
#510000
1!
15
16
1>
0:
00
11
0E
0?
0<
1(
0)
0=
19
1?
1@
1=
0@
#520000
0!
05
06
#530000
1!
15
16
1:
10
1<
1)
09
0?
0=
1@
#540000
0!
05
06
#550000
1!
15
16
1A
0>
0:
00
01
12
1E
1B
1?
0<
1'
0(
0)
0@
1=
19
0B
0C
1@
0=
1C
#560000
0!
05
06
#570000
1!
15
16
1:
10
1<
1)
09
1=
#580000
0!
05
06
#590000
1!
15
16
1>
0:
00
11
0?
0<
1(
0)
0=
19
1B
1?
0@
1=
0B
0C
1@
1C
#600000
0!
05
06
#610000
1!
15
16
1:
10
0F
1<
1)
09
14
0?
1%
0=
1B
0@
0C
#620000
0!
05
06
#630000
1!
15
16
0D
0A
0>
0:
00
01
02
03
1F
0B
1?
0<
0&
0'
0(
0)
1C
1@
1=
19
04
0%
0C
0@
0=
#640000
0!
05
06
#650000
1!
15
16
1:
10
1<
1)
09
1=
#660000
0!
05
06
#670000
1!
15
16
1>
0:
00
11
0E
0?
0<
1(
0)
0=
19
1?
1@
1=
0@
#680000
0!
05
06
#690000
1!
15
16
1:
10
1<
1)
09
0?
0=
1@
#700000
0!
05
06
#710000
1!
15
16
1A
0>
0:
00
01
12
1E
1B
0F
1?
0<
1'
0(
0)
0@
1=
19
14
1F
0B
1%
1C
1@
0=
04
0%
0C
#720000
0!
05
06
#730000
1!
15
16
1:
10
1<
1)
09
1=
#740000
0!
05
06
#750000
1!
15
16
1>
0:
00
11
0?
0<
1(
0)
0=
19
1B
1?
0@
1=
0B
1C
1@
0C
#760000
0!
05
06
#770000
1!
15
16
1:
10
1<
1)
09
0?
0=
1B
0@
1C
#780000
0!
05
06
#790000
1!
15
16
1D
0A
0>
0:
00
01
02
13
0B
1?
0<
1&
0'
0(
0)
0C
1@
1=
19
1C
0@
0=
#800000
0!
05
06
#810000
1!
15
16
1:
10
1<
1)
09
1=
#820000
0!
05
06
#830000
1!
15
16
1>
0:
00
11
0E
0?
0<
1(
0)
0=
19
1?
1@
1=
0@
#840000
0!
05
06
#850000
1!
15
16
1:
10
1<
1)
09
0?
0=
1@
#860000
0!
05
06
#870000
1!
15
16
1A
0>
0:
00
01
12
1E
1B
1?
0<
1'
0(
0)
0@
1=
19
0B
0C
1@
0=
1C
#880000
0!
05
06
#890000
1!
15
16
1:
10
1<
1)
09
1=
#900000
0!
05
06
#910000
1!
15
16
1>
0:
00
11
0?
0<
1(
0)
0=
19
1B
1?
0@
1=
0B
0C
1@
1C
#920000
0!
05
06
#930000
1!
15
16
1:
10
0F
1<
1)
09
14
0?
1%
0=
1B
0@
0C
#940000
0!
05
06
#950000
1!
15
16
0D
0A
0>
0:
00
01
02
03
1F
0B
1?
0<
0&
0'
0(
0)
1C
1@
1=
19
04
0%
0C
0@
0=
#960000
0!
05
06
#970000
1!
15
16
1:
10
1<
1)
09
1=
#980000
0!
05
06
#990000
1!
15
16
1>
0:
00
11
0E
0?
0<
1(
0)
0=
19
1?
1@
1=
0@
