juan_sdp/Counter/simulation/qsim/n_counter.msim.vcd
$comment
	File created using the following command:
		vcd file n_counter.msim.vcd -direction
$end
$date
	Thu Oct 14 12:14:33 2021
$end
$version
	ModelSim Version 10.5b
$end
$timescale
	1ps
$end

$scope module n_counter_vlg_vec_tst $end
$var reg 1 ! clk $end
$var reg 1 " enable $end
$var reg 1 # reset $end
$var reg 1 $ up_down $end
$var wire 1 % TC $end
$var wire 1 & count [1] $end
$var wire 1 ' count [0] $end

$scope module i1 $end
$var wire 1 ( gnd $end
$var wire 1 ) vcc $end
$var wire 1 * unknown $end
$var tri1 1 + devclrn $end
$var tri1 1 , devpor $end
$var tri1 1 - devoe $end
$var wire 1 . count[0]~output_o $end
$var wire 1 / count[1]~output_o $end
$var wire 1 0 TC~output_o $end
$var wire 1 1 clk~input_o $end
$var wire 1 2 clk~inputclkctrl_outclk $end
$var wire 1 3 reset~input_o $end
$var wire 1 4 count~0_combout $end
$var wire 1 5 enable~input_o $end
$var wire 1 6 count[0]~reg0_q $end
$var wire 1 7 up_down~input_o $end
$var wire 1 8 count~1_combout $end
$var wire 1 9 count[1]~reg0_q $end
$var wire 1 : TC~0_combout $end
$upscope $end
$upscope $end
$enddefinitions $end
#0
$dumpvars
0!
1"
1#
1$
0%
0'
0&
0(
1)
x*
1+
1,
1-
0.
0/
00
01
02
13
14
15
06
17
08
09
1:
$end
#10000
1!
11
12
16
1.
1'
18
04
#20000
0!
01
02
#30000
1!
11
12
19
06
0.
1/
0:
1&
0'
14
10
1%
#40000
0!
01
02
#50000
1!
11
12
16
1.
1:
1'
08
04
00
0%
#60000
0!
01
02
#70000
1!
11
12
09
06
0.
0/
0&
0'
14
#80000
0!
01
02
#90000
1!
11
12
16
1.
1'
18
04
#100000
0!
01
02
#110000
1!
11
12
19
06
0.
1/
0:
1&
0'
14
10
1%
#120000
0!
01
02
#130000
1!
11
12
16
1.
1:
1'
08
04
00
0%
#140000
0!
01
02
#150000
1!
11
12
09
06
0.
0/
0&
0'
14
#160000
0!
01
02
#170000
1!
11
12
16
1.
1'
18
04
#180000
0!
01
02
#190000
1!
11
12
19
06
0.
1/
0:
1&
0'
14
10
1%
#200000
0!
01
02
#210000
1!
11
12
16
1.
1:
1'
08
04
00
0%
#220000
0!
01
02
#230000
1!
11
12
09
06
0.
0/
0&
0'
14
#240000
0!
01
02
#250000
1!
11
12
16
1.
1'
18
04
#260000
0!
01
02
#270000
1!
11
12
19
06
0.
1/
0:
1&
0'
14
10
1%
#280000
0!
01
02
#290000
1!
11
12
16
1.
1:
1'
08
04
00
0%
#300000
0!
01
02
#310000
1!
11
12
09
06
0.
0/
0&
0'
14
#320000
0!
01
02
#330000
1!
11
12
16
1.
1'
18
04
#340000
0!
01
02
#350000
1!
11
12
19
06
0.
1/
0:
1&
0'
14
10
1%
#360000
0!
01
02
#370000
1!
11
12
16
1.
1:
1'
08
04
00
0%
#380000
0!
01
02
#390000
1!
11
12
09
06
0.
0/
0&
0'
14
#400000
0!
01
02
#410000
1!
11
12
16
1.
1'
18
04
#420000
0!
01
02
#430000
1!
11
12
19
06
0.
1/
0:
1&
0'
14
10
1%
#440000
0!
01
02
#450000
1!
11
12
16
1.
1:
1'
08
04
00
0%
#460000
0!
01
02
#470000
1!
11
12
09
06
0.
0/
0&
0'
14
#480000
0!
01
02
#490000
1!
11
12
16
1.
1'
18
04
#500000
0!
01
02
#510000
1!
11
12
19
06
0.
1/
0:
1&
0'
14
10
1%
#520000
0!
01
02
#530000
1!
11
12
16
1.
1:
1'
08
04
00
0%
#540000
0!
01
02
#550000
1!
11
12
09
06
0.
0/
0&
0'
14
#560000
0!
01
02
#570000
1!
11
12
16
1.
1'
18
04
#580000
0!
01
02
#590000
1!
11
12
19
06
0.
1/
0:
1&
0'
14
10
1%
#600000
0!
01
02
#610000
1!
11
12
16
1.
1:
1'
08
04
00
0%
#620000
0!
01
02
#630000
1!
11
12
09
06
0.
0/
0&
0'
14
#640000
0!
01
02
#650000
1!
11
12
16
1.
1'
18
04
#660000
0!
01
02
#670000
1!
11
12
19
06
0.
1/
0:
1&
0'
14
10
1%
#680000
0!
01
02
#690000
1!
11
12
16
1.
1:
1'
08
04
00
0%
#700000
0!
01
02
#710000
1!
11
12
09
06
0.
0/
0&
0'
14
#720000
0!
01
02
#730000
1!
11
12
16
1.
1'
18
04
#740000
0!
01
02
#750000
1!
11
12
19
06
0.
1/
0:
1&
0'
14
10
1%
#760000
0!
01
02
#770000
1!
11
12
16
1.
1:
1'
08
04
00
0%
#780000
0!
01
02
#790000
1!
11
12
09
06
0.
0/
0&
0'
14
#800000
0!
01
02
#810000
1!
11
12
16
1.
1'
18
04
#820000
0!
01
02
#830000
1!
11
12
19
06
0.
1/
0:
1&
0'
14
10
1%
#840000
0!
01
02
#850000
1!
11
12
16
1.
1:
1'
08
04
00
0%
#860000
0!
01
02
#870000
1!
11
12
09
06
0.
0/
0&
0'
14
#880000
0!
01
02
#890000
1!
11
12
16
1.
1'
18
04
#900000
0!
01
02
#910000
1!
11
12
19
06
0.
1/
0:
1&
0'
14
10
1%
#920000
0!
01
02
#930000
1!
11
12
16
1.
1:
1'
08
04
00
0%
#940000
0!
01
02
#950000
1!
11
12
09
06
0.
0/
0&
0'
14
#960000
0!
01
02
#970000
1!
11
12
16
1.
1'
18
04
#980000
0!
01
02
#990000
1!
11
12
19
06
0.
1/
0:
1&
0'
14
10
1%
