juan_sdp/Tarea1/simulation/qsim/lights_game.msim.vcd
$comment
	File created using the following command:
		vcd file lights_game.msim.vcd -direction
$end
$date
	Sat Oct 09 20:24:12 2021
$end
$version
	ModelSim Version 10.5b
$end
$timescale
	1ps
$end

$scope module lights_game_vlg_vec_tst $end
$var reg 1 ! clk $end
$var reg 1 " enable $end
$var reg 1 # reset $end
$var reg 1 $ up_down $end
$var wire 1 % TC $end
$var wire 1 & count [3] $end
$var wire 1 ' count [2] $end
$var wire 1 ( count [1] $end
$var wire 1 ) count [0] $end

$scope module i1 $end
$var wire 1 * gnd $end
$var wire 1 + vcc $end
$var wire 1 , unknown $end
$var tri1 1 - devclrn $end
$var tri1 1 . devpor $end
$var tri1 1 / devoe $end
$var wire 1 0 count[0]~output_o $end
$var wire 1 1 count[1]~output_o $end
$var wire 1 2 count[2]~output_o $end
$var wire 1 3 count[3]~output_o $end
$var wire 1 4 TC~output_o $end
$var wire 1 5 clk~input_o $end
$var wire 1 6 clk~inputclkctrl_outclk $end
$var wire 1 7 enable~input_o $end
$var wire 1 8 reset~input_o $end
$var wire 1 9 counter_16|count[0]~3_combout $end
$var wire 1 : up_down~input_o $end
$var wire 1 ; counter_16|count[1]~5_cout $end
$var wire 1 < counter_16|count[1]~6_combout $end
$var wire 1 = counter_16|count[1]~7 $end
$var wire 1 > counter_16|count[2]~8_combout $end
$var wire 1 ? counter_16|count[2]~9 $end
$var wire 1 @ counter_16|count[3]~10_combout $end
$var wire 1 A counter_16|TC~0_combout $end
$var wire 1 B counter_16|TC~1_combout $end
$var wire 1 C counter_16|count [3] $end
$var wire 1 D counter_16|count [2] $end
$var wire 1 E counter_16|count [1] $end
$var wire 1 F counter_16|count [0] $end
$upscope $end
$upscope $end
$enddefinitions $end
#0
$dumpvars
0!
1"
1#
1$
0%
0)
0(
0'
0&
0*
1+
x,
1-
1.
1/
00
01
02
03
04
05
06
17
18
19
1:
0;
0<
1=
0>
0?
0@
1A
1B
0F
0E
0D
0C
$end
#10000
1!
15
16
1F
10
1;
1)
09
1<
#20000
0!
05
06
#30000
1!
15
16
1E
0F
00
11
0A
0=
0;
1(
0)
0<
19
1=
1>
1<
0>
#40000
0!
05
06
#50000
1!
15
16
1F
10
1;
1)
09
0=
0<
1>
#60000
0!
05
06
#70000
1!
15
16
1D
0E
0F
00
01
12
1A
1?
0B
1=
0;
1'
0(
0)
0>
1<
19
14
1B
0?
1%
1@
1>
0<
04
0%
0@
#80000
0!
05
06
#90000
1!
15
16
1F
10
1;
1)
09
1<
#100000
0!
05
06
#110000
1!
15
16
1E
0F
00
11
0=
0;
1(
0)
0<
19
1?
1=
0>
1<
0?
1@
1>
0@
#120000
0!
05
06
#130000
1!
15
16
1F
10
1;
1)
09
0=
0<
1?
0>
1@
#140000
0!
05
06
#150000
1!
15
16
1C
0D
0E
0F
00
01
02
13
0?
1=
0;
1&
0'
0(
0)
0@
1>
1<
19
1@
0>
0<
#160000
0!
05
06
#170000
1!
15
16
1F
10
1;
1)
09
1<
#180000
0!
05
06
#190000
1!
15
16
1E
0F
00
11
0A
0=
0;
1(
0)
0<
19
1=
1>
1<
0>
#200000
0!
05
06
#210000
1!
15
16
1F
10
1;
1)
09
0=
0<
1>
#220000
0!
05
06
#230000
1!
15
16
1D
0E
0F
00
01
12
1A
1?
1=
0;
1'
0(
0)
0>
1<
19
0?
0@
1>
0<
1@
#240000
0!
05
06
#250000
1!
15
16
1F
10
1;
1)
09
1<
#260000
0!
05
06
#270000
1!
15
16
1E
0F
00
11
0=
0;
1(
0)
0<
19
1?
1=
0>
1<
0?
0@
1>
1@
#280000
0!
05
06
#290000
1!
15
16
1F
10
0B
1;
1)
09
14
0=
1%
0<
1?
0>
0@
#300000
0!
05
06
#310000
1!
15
16
0C
0D
0E
0F
00
01
02
03
1B
0?
1=
0;
0&
0'
0(
0)
1@
1>
1<
19
04
0%
0@
0>
0<
#320000
0!
05
06
#330000
1!
15
16
1F
10
1;
1)
09
1<
#340000
0!
05
06
#350000
1!
15
16
1E
0F
00
11
0A
0=
0;
1(
0)
0<
19
1=
1>
1<
0>
#360000
0!
05
06
#370000
1!
15
16
1F
10
1;
1)
09
0=
0<
1>
#380000
0!
05
06
#390000
1!
15
16
1D
0E
0F
00
01
12
1A
1?
0B
1=
0;
1'
0(
0)
0>
1<
19
14
1B
0?
1%
1@
1>
0<
04
0%
0@
#400000
0!
05
06
#410000
1!
15
16
1F
10
1;
1)
09
1<
#420000
0!
05
06
#430000
1!
15
16
1E
0F
00
11
0=
0;
1(
0)
0<
19
1?
1=
0>
1<
0?
1@
1>
0@
#440000
0!
05
06
#450000
1!
15
16
1F
10
1;
1)
09
0=
0<
1?
0>
1@
#460000
0!
05
06
#470000
1!
15
16
1C
0D
0E
0F
00
01
02
13
0?
1=
0;
1&
0'
0(
0)
0@
1>
1<
19
1@
0>
0<
#480000
0!
05
06
#490000
1!
15
16
1F
10
1;
1)
09
1<
#500000
0!
05
06
#510000
1!
15
16
1E
0F
00
11
0A
0=
0;
1(
0)
0<
19
1=
1>
1<
0>
#520000
0!
05
06
#530000
1!
15
16
1F
10
1;
1)
09
0=
0<
1>
#540000
0!
05
06
#550000
1!
15
16
1D
0E
0F
00
01
12
1A
1?
1=
0;
1'
0(
0)
0>
1<
19
0?
0@
1>
0<
1@
#560000
0!
05
06
#570000
1!
15
16
1F
10
1;
1)
09
1<
#580000
0!
05
06
#590000
1!
15
16
1E
0F
00
11
0=
0;
1(
0)
0<
19
1?
1=
0>
1<
0?
0@
1>
1@
#600000
0!
05
06
#610000
1!
15
16
1F
10
0B
1;
1)
09
14
0=
1%
0<
1?
0>
0@
#620000
0!
05
06
#630000
1!
15
16
0C
0D
0E
0F
00
01
02
03
1B
0?
1=
0;
0&
0'
0(
0)
1@
1>
1<
19
04
0%
0@
0>
0<
#640000
0!
05
06
#650000
1!
15
16
1F
10
1;
1)
09
1<
#660000
0!
05
06
#670000
1!
15
16
1E
0F
00
11
0A
0=
0;
1(
0)
0<
19
1=
1>
1<
0>
#680000
0!
05
06
#690000
1!
15
16
1F
10
1;
1)
09
0=
0<
1>
#700000
0!
05
06
#710000
1!
15
16
1D
0E
0F
00
01
12
1A
1?
0B
1=
0;
1'
0(
0)
0>
1<
19
14
1B
0?
1%
1@
1>
0<
04
0%
0@
#720000
0!
05
06
#730000
1!
15
16
1F
10
1;
1)
09
1<
#740000
0!
05
06
#750000
1!
15
16
1E
0F
00
11
0=
0;
1(
0)
0<
19
1?
1=
0>
1<
0?
1@
1>
0@
#760000
0!
05
06
#770000
1!
15
16
1F
10
1;
1)
09
0=
0<
1?
0>
1@
#780000
0!
05
06
#790000
1!
15
16
1C
0D
0E
0F
00
01
02
13
0?
1=
0;
1&
0'
0(
0)
0@
1>
1<
19
1@
0>
0<
#800000
0!
05
06
#810000
1!
15
16
1F
10
1;
1)
09
1<
#820000
0!
05
06
#830000
1!
15
16
1E
0F
00
11
0A
0=
0;
1(
0)
0<
19
1=
1>
1<
0>
#840000
0!
05
06
#850000
1!
15
16
1F
10
1;
1)
09
0=
0<
1>
#860000
0!
05
06
#870000
1!
15
16
1D
0E
0F
00
01
12
1A
1?
1=
0;
1'
0(
0)
0>
1<
19
0?
0@
1>
0<
1@
#880000
0!
05
06
#890000
1!
15
16
1F
10
1;
1)
09
1<
#900000
0!
05
06
#910000
1!
15
16
1E
0F
00
11
0=
0;
1(
0)
0<
19
1?
1=
0>
1<
0?
0@
1>
1@
#920000
0!
05
06
#930000
1!
15
16
1F
10
0B
1;
1)
09
14
0=
1%
0<
1?
0>
0@
#940000
0!
05
06
#950000
1!
15
16
0C
0D
0E
0F
00
01
02
03
1B
0?
1=
0;
0&
0'
0(
0)
1@
1>
1<
19
04
0%
0@
0>
0<
#960000
0!
05
06
#970000
1!
15
16
1F
10
1;
1)
09
1<
#980000
0!
05
06
#990000
1!
15
16
1E
0F
00
11
0A
0=
0;
1(
0)
0<
19
1=
1>
1<
0>
