juan_sdp/Tarea1/simulation/qsim/lights_game.msim.vcd
$comment
	File created using the following command:
		vcd file lights_game.msim.vcd -direction
$end
$date
	Thu Oct 14 12:19:36 2021
$end
$version
	ModelSim Version 10.5b
$end
$timescale
	1ps
$end

$scope module lights_game_vlg_vec_tst $end
$var reg 1 ! clk $end
$var reg 1 " enable $end
$var reg 1 # reset $end
$var reg 1 $ up_down $end
$var wire 1 % leds [7] $end
$var wire 1 & leds [6] $end
$var wire 1 ' leds [5] $end
$var wire 1 ( leds [4] $end
$var wire 1 ) leds [3] $end
$var wire 1 * leds [2] $end
$var wire 1 + leds [1] $end
$var wire 1 , leds [0] $end

$scope module i1 $end
$var wire 1 - gnd $end
$var wire 1 . vcc $end
$var wire 1 / unknown $end
$var tri1 1 0 devclrn $end
$var tri1 1 1 devpor $end
$var tri1 1 2 devoe $end
$var wire 1 3 leds[0]~output_o $end
$var wire 1 4 leds[1]~output_o $end
$var wire 1 5 leds[2]~output_o $end
$var wire 1 6 leds[3]~output_o $end
$var wire 1 7 leds[4]~output_o $end
$var wire 1 8 leds[5]~output_o $end
$var wire 1 9 leds[6]~output_o $end
$var wire 1 : leds[7]~output_o $end
$var wire 1 ; clk~input_o $end
$var wire 1 < clk~inputclkctrl_outclk $end
$var wire 1 = reset~input_o $end
$var wire 1 > reg_14|PR~14_combout $end
$var wire 1 ? up_down~input_o $end
$var wire 1 @ enable~input_o $end
$var wire 1 A counter_leds|count[0]~0_combout $end
$var wire 1 B counter_leds|Add0~0_combout $end
$var wire 1 C reg_14|PR[0]~1_combout $end
$var wire 1 D reg_14|PR~12_combout $end
$var wire 1 E reg_14|PR~2_combout $end
$var wire 1 F reg_14|PR~10_combout $end
$var wire 1 G reg_14|PR~6_combout $end
$var wire 1 H reg_14|PR~5_combout $end
$var wire 1 I reg_14|PR~4_combout $end
$var wire 1 J reg_14|PR~3_combout $end
$var wire 1 K reg_14|PR~8_combout $end
$var wire 1 L reg_14|PR~7_combout $end
$var wire 1 M reg_14|PR~9_combout $end
$var wire 1 N reg_14|PR~0_combout $end
$var wire 1 O reg_14|PR~11_combout $end
$var wire 1 P reg_14|PR~13_combout $end
$var wire 1 Q leds~0_combout $end
$var wire 1 R Equal1~0_combout $end
$var wire 1 S leds~1_combout $end
$var wire 1 T Equal7~0_combout $end
$var wire 1 U Equal7~1_combout $end
$var wire 1 V leds[0]~reg0_q $end
$var wire 1 W leds~2_combout $end
$var wire 1 X leds[1]~reg0_q $end
$var wire 1 Y leds~3_combout $end
$var wire 1 Z leds~4_combout $end
$var wire 1 [ leds~5_combout $end
$var wire 1 \ leds[2]~reg0_q $end
$var wire 1 ] leds~7_combout $end
$var wire 1 ^ leds~6_combout $end
$var wire 1 _ leds~8_combout $end
$var wire 1 ` leds[3]~reg0_q $end
$var wire 1 a Equal0~0_combout $end
$var wire 1 b Equal12~0_combout $end
$var wire 1 c leds~9_combout $end
$var wire 1 d leds~10_combout $end
$var wire 1 e leds~11_combout $end
$var wire 1 f leds[4]~reg0_q $end
$var wire 1 g Equal12~1_combout $end
$var wire 1 h Equal12~2_combout $end
$var wire 1 i Equal2~0_combout $end
$var wire 1 j leds~12_combout $end
$var wire 1 k leds[5]~reg0_q $end
$var wire 1 l Equal13~0_combout $end
$var wire 1 m leds~13_combout $end
$var wire 1 n leds[6]~reg0_q $end
$var wire 1 o Equal0~1_combout $end
$var wire 1 p Equal0~2_combout $end
$var wire 1 q leds[7]~reg0_q $end
$var wire 1 r counter_leds|count [1] $end
$var wire 1 s counter_leds|count [0] $end
$var wire 1 t reg_14|PR [13] $end
$var wire 1 u reg_14|PR [12] $end
$var wire 1 v reg_14|PR [11] $end
$var wire 1 w reg_14|PR [10] $end
$var wire 1 x reg_14|PR [9] $end
$var wire 1 y reg_14|PR [8] $end
$var wire 1 z reg_14|PR [7] $end
$var wire 1 { reg_14|PR [6] $end
$var wire 1 | reg_14|PR [5] $end
$var wire 1 } reg_14|PR [4] $end
$var wire 1 ~ reg_14|PR [3] $end
$var wire 1 !! reg_14|PR [2] $end
$var wire 1 "! reg_14|PR [1] $end
$var wire 1 #! reg_14|PR [0] $end
$upscope $end
$upscope $end
$enddefinitions $end
#0
$dumpvars
0!
1"
1#
1$
0,
0+
0*
0)
0(
0'
0&
0%
0-
1.
x/
10
11
12
03
04
05
06
07
08
09
0:
0;
0<
1=
0>
1?
1@
1A
0B
0C
0D
0E
0F
0G
0H
1I
0J
0K
0L
0M
0N
0O
0P
0Q
0R
0S
0T
0U
0V
0W
0X
1Y
0Z
0[
0\
1]
0^
0_
0`
1a
0b
0c
1d
0e
0f
0g
0h
1i
0j
0k
0l
0m
0n
0o
0p
0q
0s
0r
0#!
0"!
0!!
0~
0}
0|
0{
0z
0y
0x
0w
0v
0u
0t
$end
#10000
1!
1;
1<
1s
1B
0A
#20000
0!
0;
0<
#30000
1!
1;
1<
1r
0s
1A
#40000
0!
0;
0<
#50000
1!
1;
1<
1s
1C
0B
0A
#60000
0!
0;
0<
#70000
1!
1;
1<
1t
0r
0s
0C
1J
1A
#80000
0!
0;
0<
#90000
1!
1;
1<
1s
1B
0A
#100000
0!
0;
0<
#110000
1!
1;
1<
1r
0s
1A
#120000
0!
0;
0<
#130000
1!
1;
1<
1s
1C
0B
0A
#140000
0!
0;
0<
#150000
1!
1;
1<
1u
0r
0s
1R
1K
0C
1A
1m
#160000
0!
0;
0<
#170000
1!
1;
1<
1s
1n
19
1&
1B
0A
#180000
0!
0;
0<
#190000
1!
1;
1<
1r
0s
1A
#200000
0!
0;
0<
#210000
1!
1;
1<
1s
1C
0B
0A
#220000
0!
0;
0<
#230000
1!
1;
1<
1v
0r
0s
0C
0m
1j
1L
1A
#240000
0!
0;
0<
#250000
1!
1;
1<
1s
0n
1k
18
09
0&
1'
1B
0A
#260000
0!
0;
0<
#270000
1!
1;
1<
1r
0s
1A
#280000
0!
0;
0<
#290000
1!
1;
1<
1s
1C
0B
0A
#300000
0!
0;
0<
#310000
1!
1;
1<
1w
0r
0s
0i
1g
1^
0C
1M
1A
0j
1e
#320000
0!
0;
0<
#330000
1!
1;
1<
1s
0k
1f
17
08
0'
1(
1B
0A
#340000
0!
0;
0<
#350000
1!
1;
1<
1r
0s
1A
#360000
0!
0;
0<
#370000
1!
1;
1<
1s
1C
0B
0A
#380000
0!
0;
0<
#390000
1!
1;
1<
1x
0r
0s
0a
1Q
0C
1_
1N
1A
0e
#400000
0!
0;
0<
#410000
1!
1;
1<
1s
0f
1`
16
07
0(
1)
1B
0A
#420000
0!
0;
0<
#430000
1!
1;
1<
1r
0s
1A
#440000
0!
0;
0<
#450000
1!
1;
1<
1s
1C
0B
0A
#460000
0!
0;
0<
#470000
1!
1;
1<
1y
0r
0s
0d
0]
1S
0C
1O
1A
0_
1[
#480000
0!
0;
0<
#490000
1!
1;
1<
1s
0`
1\
15
06
0)
1*
1B
0A
#500000
0!
0;
0<
#510000
1!
1;
1<
1r
0s
1A
#520000
0!
0;
0<
#530000
1!
1;
1<
1s
1C
0B
0A
#540000
0!
0;
0<
#550000
1!
1;
1<
1z
0r
0s
0Y
1T
0C
1P
1A
0[
1W
#560000
0!
0;
0<
#570000
1!
1;
1<
1s
0\
1X
14
05
0*
1+
1B
0A
#580000
0!
0;
0<
#590000
1!
1;
1<
1r
0s
1A
#600000
0!
0;
0<
#610000
1!
1;
1<
1s
1C
0B
0A
#620000
0!
0;
0<
#630000
1!
1;
1<
1{
0r
0s
0C
0W
1U
1>
1A
#640000
0!
0;
0<
#650000
1!
1;
1<
1s
0X
1V
13
04
0+
1,
1B
0A
#660000
0!
0;
0<
#670000
1!
1;
1<
1r
0s
1A
#680000
0!
0;
0<
#690000
1!
1;
1<
1s
1C
0B
0A
#700000
0!
0;
0<
#710000
1!
1;
1<
1|
0r
0s
0C
1W
0U
1D
1A
#720000
0!
0;
0<
#730000
1!
1;
1<
1s
1X
0V
03
14
1+
0,
1B
0A
#740000
0!
0;
0<
#750000
1!
1;
1<
1r
0s
1A
#760000
0!
0;
0<
#770000
1!
1;
1<
1s
1C
0B
0A
#780000
0!
0;
0<
#790000
1!
1;
1<
1}
0r
0s
1Z
0T
1E
0C
1A
1[
0W
#800000
0!
0;
0<
#810000
1!
1;
1<
1s
1\
0X
04
15
1*
0+
1B
0A
#820000
0!
0;
0<
#830000
1!
1;
1<
1r
0s
1A
#840000
0!
0;
0<
#850000
1!
1;
1<
1s
1C
0B
0A
#860000
0!
0;
0<
#870000
1!
1;
1<
1~
0r
0s
1b
1]
0S
0C
1F
1A
1_
0[
#880000
0!
0;
0<
#890000
1!
1;
1<
1s
1`
0\
05
16
1)
0*
1B
0A
#900000
0!
0;
0<
#910000
1!
1;
1<
1r
0s
1A
#920000
0!
0;
0<
#930000
1!
1;
1<
1s
1C
0B
0A
#940000
0!
0;
0<
#950000
1!
1;
1<
1!!
0r
0s
1c
0Q
1G
0C
0_
1A
1e
#960000
0!
0;
0<
#970000
1!
1;
1<
1s
1f
0`
06
17
1(
0)
1B
0A
#980000
0!
0;
0<
#990000
1!
1;
1<
1r
0s
1A
#1000000
0!
0;
0<
#1010000
1!
1;
1<
1s
1C
0B
0A
#1020000
0!
0;
0<
#1030000
1!
1;
1<
1"!
0r
0s
1h
0R
0C
1H
1A
0^
1j
0e
#1040000
0!
0;
0<
#1050000
1!
1;
1<
1s
1k
0f
07
18
1'
0(
1B
0A
#1060000
0!
0;
0<
#1070000
1!
1;
1<
1r
0s
1A
#1080000
0!
0;
0<
#1090000
1!
1;
1<
1s
1C
0B
0A
#1100000
0!
0;
0<
#1110000
1!
1;
1<
1#!
0r
0s
1l
0h
0I
0C
1A
1m
0j
#1120000
0!
0;
0<
#1130000
1!
1;
1<
1s
1n
0k
08
19
1&
0'
1B
0A
#1140000
0!
0;
0<
#1150000
1!
1;
1<
1r
0s
1A
#1160000
0!
0;
0<
#1170000
1!
1;
1<
1s
1C
0B
0A
#1180000
0!
0;
0<
#1190000
1!
1;
1<
0t
0r
0s
0g
0C
0J
1A
0l
0m
#1200000
0!
0;
0<
#1210000
1!
1;
1<
1s
0n
09
0&
1B
0A
#1220000
0!
0;
0<
#1230000
1!
1;
1<
1r
0s
1A
#1240000
0!
0;
0<
#1250000
1!
1;
1<
1s
1C
0B
0A
#1260000
0!
0;
0<
#1270000
1!
1;
1<
0u
0r
0s
0K
0C
1A
#1280000
0!
0;
0<
#1290000
1!
1;
1<
1s
1B
0A
#1300000
0!
0;
0<
#1310000
1!
1;
1<
1r
0s
1A
#1320000
0!
0;
0<
#1330000
1!
1;
1<
1s
1C
0B
0A
#1340000
0!
0;
0<
#1350000
1!
1;
1<
0v
0r
0s
0C
0L
1A
#1360000
0!
0;
0<
#1370000
1!
1;
1<
1s
1B
0A
#1380000
0!
0;
0<
#1390000
1!
1;
1<
1r
0s
1A
#1400000
0!
0;
0<
#1410000
1!
1;
1<
1s
1C
0B
0A
#1420000
0!
0;
0<
#1430000
1!
1;
1<
0w
0r
0s
0C
0M
1A
#1440000
0!
0;
0<
#1450000
1!
1;
1<
1s
1B
0A
#1460000
0!
0;
0<
#1470000
1!
1;
1<
1r
0s
1A
#1480000
0!
0;
0<
#1490000
1!
1;
1<
1s
1C
0B
0A
#1500000
0!
0;
0<
#1510000
1!
1;
1<
0x
0r
0s
0c
0C
0N
1A
#1520000
0!
0;
0<
#1530000
1!
1;
1<
1s
1B
0A
#1540000
0!
0;
0<
#1550000
1!
1;
1<
1r
0s
1A
#1560000
0!
0;
0<
#1570000
1!
1;
1<
1s
1C
0B
0A
#1580000
0!
0;
0<
#1590000
1!
1;
1<
0y
0r
0s
0b
0]
0C
0O
1A
#1600000
0!
0;
0<
#1610000
1!
1;
1<
1s
1B
0A
#1620000
0!
0;
0<
#1630000
1!
1;
1<
1r
0s
1A
#1640000
0!
0;
0<
#1650000
1!
1;
1<
1s
1C
0B
0A
#1660000
0!
0;
0<
#1670000
1!
1;
1<
0z
0r
0s
0Z
0C
0P
1A
#1680000
0!
0;
0<
#1690000
1!
1;
1<
1s
1B
0A
#1700000
0!
0;
0<
#1710000
1!
1;
1<
1r
0s
1A
#1720000
0!
0;
0<
#1730000
1!
1;
1<
1s
1C
0B
0A
#1740000
0!
0;
0<
#1750000
1!
1;
1<
0{
0r
0s
0C
0>
1A
#1760000
0!
0;
0<
#1770000
1!
1;
1<
1s
1B
0A
#1780000
0!
0;
0<
#1790000
1!
1;
1<
1r
0s
1A
#1800000
0!
0;
0<
#1810000
1!
1;
1<
1s
1C
0B
0A
#1820000
0!
0;
0<
#1830000
1!
1;
1<
0|
0r
0s
0C
0D
1A
#1840000
0!
0;
0<
#1850000
1!
1;
1<
1s
1B
0A
#1860000
0!
0;
0<
#1870000
1!
1;
1<
1r
0s
1A
#1880000
0!
0;
0<
#1890000
1!
1;
1<
1s
1C
0B
0A
#1900000
0!
0;
0<
#1910000
1!
1;
1<
0}
0r
0s
1Y
0E
0C
1A
#1920000
0!
0;
0<
#1930000
1!
1;
1<
1s
1B
0A
#1940000
0!
0;
0<
#1950000
1!
1;
1<
1r
0s
1A
#1960000
0!
0;
0<
#1970000
1!
1;
1<
1s
1C
0B
0A
#1980000
0!
0;
0<
#1990000
1!
1;
1<
0~
0r
0s
1d
1]
0C
0F
1A
