juan_sdp/Tarea1/simulation/qsim/lights_game.msim.vcd
$comment
	File created using the following command:
		vcd file lights_game.msim.vcd -direction
$end
$date
	Thu Oct 14 11:37:14 2021
$end
$version
	ModelSim Version 10.5b
$end
$timescale
	1ps
$end

$scope module lights_game_vlg_vec_tst $end
$var reg 1 ! clk $end
$var reg 1 " enable $end
$var reg 1 # reset $end
$var reg 1 $ up_down $end
$var wire 1 % leds [7] $end
$var wire 1 & leds [6] $end
$var wire 1 ' leds [5] $end
$var wire 1 ( leds [4] $end
$var wire 1 ) leds [3] $end
$var wire 1 * leds [2] $end
$var wire 1 + leds [1] $end
$var wire 1 , leds [0] $end

$scope module i1 $end
$var wire 1 - gnd $end
$var wire 1 . vcc $end
$var wire 1 / unknown $end
$var tri1 1 0 devclrn $end
$var tri1 1 1 devpor $end
$var tri1 1 2 devoe $end
$var wire 1 3 leds[0]~output_o $end
$var wire 1 4 leds[1]~output_o $end
$var wire 1 5 leds[2]~output_o $end
$var wire 1 6 leds[3]~output_o $end
$var wire 1 7 leds[4]~output_o $end
$var wire 1 8 leds[5]~output_o $end
$var wire 1 9 leds[6]~output_o $end
$var wire 1 : leds[7]~output_o $end
$var wire 1 ; clk~input_o $end
$var wire 1 < clk~inputclkctrl_outclk $end
$var wire 1 = reset~input_o $end
$var wire 1 > reg_14|PR~9_combout $end
$var wire 1 ? up_down~input_o $end
$var wire 1 @ enable~input_o $end
$var wire 1 A counter_leds|count[0]~0_combout $end
$var wire 1 B counter_leds|Add0~0_combout $end
$var wire 1 C reg_14|PR[0]~1_combout $end
$var wire 1 D reg_14|PR~8_combout $end
$var wire 1 E reg_14|PR~7_combout $end
$var wire 1 F reg_14|PR~5_combout $end
$var wire 1 G reg_14|PR~0_combout $end
$var wire 1 H reg_14|PR~3_combout $end
$var wire 1 I reg_14|PR~2_combout $end
$var wire 1 J reg_14|PR~4_combout $end
$var wire 1 K reg_14|PR~6_combout $end
$var wire 1 L reg_14|PR~11_combout $end
$var wire 1 M reg_14|PR~14_combout $end
$var wire 1 N reg_14|PR~13_combout $end
$var wire 1 O reg_14|PR~12_combout $end
$var wire 1 P reg_14|PR~10_combout $end
$var wire 1 Q Equal1~0_combout $end
$var wire 1 R leds~3_combout $end
$var wire 1 S Equal20~0_combout $end
$var wire 1 T Equal20~1_combout $end
$var wire 1 U leds~2_combout $end
$var wire 1 V leds~0_combout $end
$var wire 1 W leds~1_combout $end
$var wire 1 X Equal12~0_combout $end
$var wire 1 Y Equal21~0_combout $end
$var wire 1 Z Equal12~1_combout $end
$var wire 1 [ leds~4_combout $end
$var wire 1 \ leds~5_combout $end
$var wire 1 ] leds~6_combout $end
$var wire 1 ^ leds~7_combout $end
$var wire 1 _ leds~8_combout $end
$var wire 1 ` leds~9_combout $end
$var wire 1 a leds~10_combout $end
$var wire 1 b leds~11_combout $end
$var wire 1 c leds~12_combout $end
$var wire 1 d leds~13_combout $end
$var wire 1 e Equal0~0_combout $end
$var wire 1 f Equal1~1_combout $end
$var wire 1 g leds~14_combout $end
$var wire 1 h leds~15_combout $end
$var wire 1 i leds~16_combout $end
$var wire 1 j leds~17_combout $end
$var wire 1 k leds~18_combout $end
$var wire 1 l Equal1~2_combout $end
$var wire 1 m leds~19_combout $end
$var wire 1 n leds~20_combout $end
$var wire 1 o Equal0~1_combout $end
$var wire 1 p leds~21_combout $end
$var wire 1 q counter_leds|count [1] $end
$var wire 1 r counter_leds|count [0] $end
$var wire 1 s reg_14|PR [13] $end
$var wire 1 t reg_14|PR [12] $end
$var wire 1 u reg_14|PR [11] $end
$var wire 1 v reg_14|PR [10] $end
$var wire 1 w reg_14|PR [9] $end
$var wire 1 x reg_14|PR [8] $end
$var wire 1 y reg_14|PR [7] $end
$var wire 1 z reg_14|PR [6] $end
$var wire 1 { reg_14|PR [5] $end
$var wire 1 | reg_14|PR [4] $end
$var wire 1 } reg_14|PR [3] $end
$var wire 1 ~ reg_14|PR [2] $end
$var wire 1 !! reg_14|PR [1] $end
$var wire 1 "! reg_14|PR [0] $end
$upscope $end
$upscope $end
$enddefinitions $end
#0
$dumpvars
0!
1"
1#
1$
0,
0+
0*
0)
0(
0'
0&
0%
0-
1.
x/
10
11
12
03
04
05
06
07
08
09
0:
0;
0<
1=
0>
1?
1@
1A
0B
0C
0D
0E
0F
0G
1H
0I
0J
0K
0L
0M
0N
0O
0P
0Q
0R
0S
0T
0U
0V
0W
0X
0Y
0Z
0[
0\
0]
0^
0_
0`
1a
1b
0c
0d
0e
0f
0g
0h
0i
0j
0k
0l
0m
0n
0o
0p
0r
0q
0"!
0!!
0~
0}
0|
0{
0z
0y
0x
0w
0v
0u
0t
0s
$end
#5000
1!
1;
1<
1r
1B
0A
#10000
0!
0;
0<
#15000
1!
1;
1<
1q
0r
1A
#20000
0!
0;
0<
#25000
1!
1;
1<
1r
1C
0B
0A
#30000
0!
0;
0<
#35000
1!
1;
1<
1s
0q
0r
1R
0C
1I
1A
1e
1o
1p
1:
1%
#40000
0!
0;
0<
#45000
1!
1;
1<
1r
1B
0A
#50000
0!
0;
0<
#55000
1!
1;
1<
1q
0r
1A
#60000
0!
0;
0<
#65000
1!
1;
1<
1r
1C
0B
0A
#70000
0!
0;
0<
#75000
1!
1;
1<
1t
0q
0r
0o
1m
0C
1J
1A
0p
1n
19
0:
0%
1&
#80000
0!
0;
0<
#85000
1!
1;
1<
1r
1B
0A
#90000
0!
0;
0<
#95000
1!
1;
1<
1q
0r
1A
#100000
0!
0;
0<
#105000
1!
1;
1<
1r
1C
0B
0A
#110000
0!
0;
0<
#115000
1!
1;
1<
1u
0q
0r
0m
1j
0C
0n
1K
1A
09
0&
1k
18
1'
#120000
0!
0;
0<
#125000
1!
1;
1<
1r
1B
0A
#130000
0!
0;
0<
#135000
1!
1;
1<
1q
0r
1A
#140000
0!
0;
0<
#145000
1!
1;
1<
1r
1C
0B
0A
#150000
0!
0;
0<
#155000
1!
1;
1<
1v
0q
0r
1m
0j
1Q
0C
0k
1L
1A
08
0'
1h
17
1(
#160000
0!
0;
0<
#165000
1!
1;
1<
1r
1B
0A
#170000
0!
0;
0<
#175000
1!
1;
1<
1q
0r
1A
#180000
0!
0;
0<
#185000
1!
1;
1<
1r
1C
0B
0A
#190000
0!
0;
0<
#195000
1!
1;
1<
1w
0q
0r
0e
1S
0C
1M
1A
1c
1T
0h
07
0(
1d
16
1)
#200000
0!
0;
0<
#205000
1!
1;
1<
1r
1B
0A
#210000
0!
0;
0<
#215000
1!
1;
1<
1q
0r
1A
#220000
0!
0;
0<
#225000
1!
1;
1<
1r
1C
0B
0A
#230000
0!
0;
0<
#235000
1!
1;
1<
1x
0q
0r
0b
0C
1`
1N
1A
15
0c
1*
0d
06
0)
#240000
0!
0;
0<
#245000
1!
1;
1<
1r
1B
0A
#250000
0!
0;
0<
#255000
1!
1;
1<
1q
0r
1A
#260000
0!
0;
0<
#265000
1!
1;
1<
1r
1C
0B
0A
#270000
0!
0;
0<
#275000
1!
1;
1<
1y
0q
0r
0a
1_
1\
0C
1O
1A
0`
1]
14
05
0*
1+
#280000
0!
0;
0<
#285000
1!
1;
1<
1r
1B
0A
#290000
0!
0;
0<
#295000
1!
1;
1<
1q
0r
1A
#300000
0!
0;
0<
#305000
1!
1;
1<
1r
1C
0B
0A
#310000
0!
0;
0<
#315000
1!
1;
1<
1z
0q
0r
0\
1Z
0C
1P
1A
0]
1[
13
04
0+
1,
#320000
0!
0;
0<
#325000
1!
1;
1<
1r
1B
0A
#330000
0!
0;
0<
#335000
1!
1;
1<
1q
0r
1A
#340000
0!
0;
0<
#345000
1!
1;
1<
1r
1C
0B
0A
#350000
0!
0;
0<
#355000
1!
1;
1<
1{
0q
0r
1\
0C
0[
1>
1A
03
0,
1]
14
1+
#360000
0!
0;
0<
#365000
1!
1;
1<
1r
1B
0A
#370000
0!
0;
0<
#375000
1!
1;
1<
1q
0r
1A
#380000
0!
0;
0<
#385000
1!
1;
1<
1r
1C
0B
0A
#390000
0!
0;
0<
#395000
1!
1;
1<
1|
0q
0r
1^
0T
0C
1D
1A
0_
0]
04
0+
1`
15
1*
#400000
0!
0;
0<
#405000
1!
1;
1<
1r
1B
0A
#410000
0!
0;
0<
#415000
1!
1;
1<
1q
0r
1A
#420000
0!
0;
0<
#425000
1!
1;
1<
1r
1C
0B
0A
#430000
0!
0;
0<
#435000
1!
1;
1<
1}
0q
0r
0^
1U
0C
1E
1A
1_
1c
0`
1d
16
05
0*
1)
#440000
0!
0;
0<
#445000
1!
1;
1<
1r
1B
0A
#450000
0!
0;
0<
#455000
1!
1;
1<
1q
0r
1A
#460000
0!
0;
0<
#465000
1!
1;
1<
1r
1C
0B
0A
#470000
0!
0;
0<
#475000
1!
1;
1<
1~
0q
0r
1f
0S
0C
1F
1A
1g
0c
1h
0d
06
17
1(
0)
#480000
0!
0;
0<
#485000
1!
1;
1<
1r
1B
0A
#490000
0!
0;
0<
#495000
1!
1;
1<
1q
0r
1A
#500000
0!
0;
0<
#505000
1!
1;
1<
1r
1C
0B
0A
#510000
0!
0;
0<
#515000
1!
1;
1<
1!!
0q
0r
1i
0R
0C
1G
1A
1j
0g
1k
0h
07
18
1'
0(
#520000
0!
0;
0<
#525000
1!
1;
1<
1r
1B
0A
#530000
0!
0;
0<
#535000
1!
1;
1<
1q
0r
1A
#540000
0!
0;
0<
#545000
1!
1;
1<
1r
1C
0B
0A
#550000
0!
0;
0<
#555000
1!
1;
1<
1"!
0q
0r
1l
0i
0C
0H
1A
0j
1n
19
1&
0k
08
0'
#560000
0!
0;
0<
#565000
1!
1;
1<
1r
1B
0A
#570000
0!
0;
0<
#575000
1!
1;
1<
1q
0r
1A
#580000
0!
0;
0<
#585000
1!
1;
1<
1r
1C
0B
0A
#590000
0!
0;
0<
#595000
1!
1;
1<
0s
0q
0r
0m
0C
1p
0I
1A
1:
1%
0n
09
0&
#600000
0!
0;
0<
#605000
1!
1;
1<
1r
1B
0A
#610000
0!
0;
0<
#615000
1!
1;
1<
1q
0r
1A
#620000
0!
0;
0<
#625000
1!
1;
1<
1r
1C
0B
0A
#630000
0!
0;
0<
#635000
1!
1;
1<
0t
0q
0r
1m
0Q
0C
0J
1A
1n
0p
0:
19
1&
0%
#640000
0!
0;
0<
#645000
1!
1;
1<
1r
1B
0A
#650000
0!
0;
0<
#655000
1!
1;
1<
1q
0r
1A
#660000
0!
0;
0<
#665000
1!
1;
1<
1r
1C
0B
0A
#670000
0!
0;
0<
#675000
1!
1;
1<
0u
0q
0r
0m
1i
1V
0C
0n
0K
1A
09
1j
0&
1k
18
1'
#680000
0!
0;
0<
#685000
1!
1;
1<
1r
1B
0A
#690000
0!
0;
0<
#695000
1!
1;
1<
1q
0r
1A
#700000
0!
0;
0<
#705000
1!
1;
1<
1r
1C
0B
0A
#710000
0!
0;
0<
#715000
1!
1;
1<
0v
0q
0r
0j
1W
0C
0k
0L
1A
08
1g
0'
1h
17
1(
#720000
0!
0;
0<
#725000
1!
1;
1<
1r
1B
0A
#730000
0!
0;
0<
#735000
1!
1;
1<
1q
0r
1A
#740000
0!
0;
0<
#745000
1!
1;
1<
1r
1C
0B
0A
#750000
0!
0;
0<
#755000
1!
1;
1<
0w
0q
0r
0f
1X
0C
0M
1A
0l
0g
1d
16
1)
0h
07
0(
#760000
0!
0;
0<
#765000
1!
1;
1<
1r
1B
0A
#770000
0!
0;
0<
#775000
1!
1;
1<
1q
0r
1A
#780000
0!
0;
0<
#785000
1!
1;
1<
1r
1C
0B
0A
#790000
0!
0;
0<
#795000
1!
1;
1<
0x
0q
0r
0\
0Z
0C
1`
0N
1A
15
1*
0d
06
0)
#800000
0!
0;
0<
#805000
1!
1;
1<
1r
1B
0A
#810000
0!
0;
0<
#815000
1!
1;
1<
1q
0r
1A
#820000
0!
0;
0<
#825000
1!
1;
1<
1r
1C
0B
0A
#830000
0!
0;
0<
#835000
1!
1;
1<
0y
0q
0r
0_
1\
0C
0O
1A
0`
1]
14
05
0*
1+
#840000
0!
0;
0<
#845000
1!
1;
1<
1r
1B
0A
#850000
0!
0;
0<
#855000
1!
1;
1<
1q
0r
1A
#860000
0!
0;
0<
#865000
1!
1;
1<
1r
1C
0B
0A
#870000
0!
0;
0<
#875000
1!
1;
1<
0z
0q
0r
1^
0\
1Y
0C
0P
1A
0]
1[
13
04
0+
1,
#880000
0!
0;
0<
#885000
1!
1;
1<
1r
1B
0A
#890000
0!
0;
0<
#895000
1!
1;
1<
1q
0r
1A
#900000
0!
0;
0<
#905000
1!
1;
1<
1r
1C
0B
0A
#910000
0!
0;
0<
#915000
1!
1;
1<
0{
0q
0r
0U
0C
0>
1A
0X
0Y
0[
03
0,
#920000
0!
0;
0<
#925000
1!
1;
1<
1r
1B
0A
#930000
0!
0;
0<
#935000
1!
1;
1<
1q
0r
1A
#940000
0!
0;
0<
#945000
1!
1;
1<
1r
1C
0B
0A
#950000
0!
0;
0<
#955000
1!
1;
1<
0|
0q
0r
1a
0C
0D
1A
#960000
0!
0;
0<
#965000
1!
1;
1<
1r
1B
0A
#970000
0!
0;
0<
#975000
1!
1;
1<
1q
0r
1A
#980000
0!
0;
0<
#985000
1!
1;
1<
1r
1C
0B
0A
#990000
0!
0;
0<
#995000
1!
1;
1<
0}
0q
0r
1b
0^
0C
0E
1A
#1000000
0!
0;
0<
#1005000
1!
1;
1<
1r
1B
0A
#1010000
0!
0;
0<
#1015000
1!
1;
1<
1q
0r
1A
#1020000
0!
0;
0<
#1025000
1!
1;
1<
1r
1C
0B
0A
#1030000
0!
0;
0<
#1035000
1!
1;
1<
0~
0q
0r
0C
0F
1A
#1040000
0!
0;
0<
#1045000
1!
1;
1<
1r
1B
0A
#1050000
0!
0;
0<
#1055000
1!
1;
1<
1q
0r
1A
#1060000
0!
0;
0<
#1065000
1!
1;
1<
1r
1C
0B
0A
#1070000
0!
0;
0<
#1075000
1!
1;
1<
0!!
0q
0r
0i
0W
0C
0G
1A
#1080000
0!
0;
0<
#1085000
1!
1;
1<
1r
1B
0A
#1090000
0!
0;
0<
#1095000
1!
1;
1<
1q
0r
1A
#1100000
0!
0;
0<
#1105000
1!
1;
1<
1r
1C
0B
0A
#1110000
0!
0;
0<
#1115000
1!
1;
1<
0"!
0q
0r
0V
0C
1H
1A
#1120000
0!
0;
0<
#1125000
1!
1;
1<
1r
1B
0A
#1130000
0!
0;
0<
#1135000
1!
1;
1<
1q
0r
1A
#1140000
0!
0;
0<
#1145000
1!
1;
1<
1r
1C
0B
0A
#1150000
0!
0;
0<
#1155000
1!
1;
1<
1s
0q
0r
1R
0C
1I
1A
1e
1o
1p
1:
1%
#1160000
0!
0;
0<
#1165000
1!
1;
1<
1r
1B
0A
#1170000
0!
0;
0<
#1175000
1!
1;
1<
1q
0r
1A
#1180000
0!
0;
0<
#1185000
1!
1;
1<
1r
1C
0B
0A
#1190000
0!
0;
0<
#1195000
1!
1;
1<
1t
0q
0r
0o
1m
0C
1J
1A
0p
1n
19
0:
0%
1&
#1200000
0!
0;
0<
#1205000
1!
1;
1<
1r
1B
0A
#1210000
0!
0;
0<
#1215000
1!
1;
1<
1q
0r
1A
#1220000
0!
0;
0<
#1225000
1!
1;
1<
1r
1C
0B
0A
#1230000
0!
0;
0<
#1235000
1!
1;
1<
1u
0q
0r
0m
1j
0C
0n
1K
1A
09
0&
1k
18
1'
#1240000
0!
0;
0<
#1245000
1!
1;
1<
1r
1B
0A
#1250000
0!
0;
0<
#1255000
1!
1;
1<
1q
0r
1A
#1260000
0!
0;
0<
#1265000
1!
1;
1<
1r
1C
0B
0A
#1270000
0!
0;
0<
#1275000
1!
1;
1<
1v
0q
0r
1m
0j
1Q
0C
0k
1L
1A
08
0'
1h
17
1(
#1280000
0!
0;
0<
#1285000
1!
1;
1<
1r
1B
0A
#1290000
0!
0;
0<
#1295000
1!
1;
1<
1q
0r
1A
#1300000
0!
0;
0<
#1305000
1!
1;
1<
1r
1C
0B
0A
#1310000
0!
0;
0<
#1315000
1!
1;
1<
1w
0q
0r
0e
1S
0C
1M
1A
1c
1T
0h
07
0(
1d
16
1)
#1320000
0!
0;
0<
#1325000
1!
1;
1<
1r
1B
0A
#1330000
0!
0;
0<
#1335000
1!
1;
1<
1q
0r
1A
#1340000
0!
0;
0<
#1345000
1!
1;
1<
1r
1C
0B
0A
#1350000
0!
0;
0<
#1355000
1!
1;
1<
1x
0q
0r
0b
0C
1`
1N
1A
15
0c
1*
0d
06
0)
#1360000
0!
0;
0<
#1365000
1!
1;
1<
1r
1B
0A
#1370000
0!
0;
0<
#1375000
1!
1;
1<
1q
0r
1A
#1380000
0!
0;
0<
#1385000
1!
1;
1<
1r
1C
0B
0A
#1390000
0!
0;
0<
#1395000
1!
1;
1<
1y
0q
0r
0a
1_
1\
0C
1O
1A
0`
1]
14
05
0*
1+
#1400000
0!
0;
0<
#1405000
1!
1;
1<
1r
1B
0A
#1410000
0!
0;
0<
#1415000
1!
1;
1<
1q
0r
1A
#1420000
0!
0;
0<
#1425000
1!
1;
1<
1r
1C
0B
0A
#1430000
0!
0;
0<
#1435000
1!
1;
1<
1z
0q
0r
0\
1Z
0C
1P
1A
0]
1[
13
04
0+
1,
#1440000
0!
0;
0<
#1445000
1!
1;
1<
1r
1B
0A
#1450000
0!
0;
0<
#1455000
1!
1;
1<
1q
0r
1A
#1460000
0!
0;
0<
#1465000
1!
1;
1<
1r
1C
0B
0A
#1470000
0!
0;
0<
#1475000
1!
1;
1<
1{
0q
0r
1\
0C
0[
1>
1A
03
0,
1]
14
1+
#1480000
0!
0;
0<
#1485000
1!
1;
1<
1r
1B
0A
#1490000
0!
0;
0<
#1495000
1!
1;
1<
1q
0r
1A
#1500000
0!
0;
0<
#1505000
1!
1;
1<
1r
1C
0B
0A
#1510000
0!
0;
0<
#1515000
1!
1;
1<
1|
0q
0r
1^
0T
0C
1D
1A
0_
0]
04
0+
1`
15
1*
#1520000
0!
0;
0<
#1525000
1!
1;
1<
1r
1B
0A
#1530000
0!
0;
0<
#1535000
1!
1;
1<
1q
0r
1A
#1540000
0!
0;
0<
#1545000
1!
1;
1<
1r
1C
0B
0A
#1550000
0!
0;
0<
#1555000
1!
1;
1<
1}
0q
0r
0^
1U
0C
1E
1A
1_
1c
0`
1d
16
05
0*
1)
#1560000
0!
0;
0<
#1565000
1!
1;
1<
1r
1B
0A
#1570000
0!
0;
0<
#1575000
1!
1;
1<
1q
0r
1A
#1580000
0!
0;
0<
#1585000
1!
1;
1<
1r
1C
0B
0A
#1590000
0!
0;
0<
#1595000
1!
1;
1<
1~
0q
0r
1f
0S
0C
1F
1A
1g
0c
1h
0d
06
17
1(
0)
#1600000
0!
0;
0<
#1605000
1!
1;
1<
1r
1B
0A
#1610000
0!
0;
0<
#1615000
1!
1;
1<
1q
0r
1A
#1620000
0!
0;
0<
#1625000
1!
1;
1<
1r
1C
0B
0A
#1630000
0!
0;
0<
#1635000
1!
1;
1<
1!!
0q
0r
1i
0R
0C
1G
1A
1j
0g
1k
0h
07
18
1'
0(
#1640000
0!
0;
0<
#1645000
1!
1;
1<
1r
1B
0A
#1650000
0!
0;
0<
#1655000
1!
1;
1<
1q
0r
1A
#1660000
0!
0;
0<
#1665000
1!
1;
1<
1r
1C
0B
0A
#1670000
0!
0;
0<
#1675000
1!
1;
1<
1"!
0q
0r
1l
0i
0C
0H
1A
0j
1n
19
1&
0k
08
0'
#1680000
0!
0;
0<
#1685000
1!
1;
1<
1r
1B
0A
#1690000
0!
0;
0<
#1695000
1!
1;
1<
1q
0r
1A
#1700000
0!
0;
0<
#1705000
1!
1;
1<
1r
1C
0B
0A
#1710000
0!
0;
0<
#1715000
1!
1;
1<
0s
0q
0r
0m
0C
1p
0I
1A
1:
1%
0n
09
0&
#1720000
0!
0;
0<
#1725000
1!
1;
1<
1r
1B
0A
#1730000
0!
0;
0<
#1735000
1!
1;
1<
1q
0r
1A
#1740000
0!
0;
0<
#1745000
1!
1;
1<
1r
1C
0B
0A
#1750000
0!
0;
0<
#1755000
1!
1;
1<
0t
0q
0r
1m
0Q
0C
0J
1A
1n
0p
0:
19
1&
0%
#1760000
0!
0;
0<
#1765000
1!
1;
1<
1r
1B
0A
#1770000
0!
0;
0<
#1775000
1!
1;
1<
1q
0r
1A
#1780000
0!
0;
0<
#1785000
1!
1;
1<
1r
1C
0B
0A
#1790000
0!
0;
0<
#1795000
1!
1;
1<
0u
0q
0r
0m
1i
1V
0C
0n
0K
1A
09
1j
0&
1k
18
1'
#1800000
0!
0;
0<
#1805000
1!
1;
1<
1r
1B
0A
#1810000
0!
0;
0<
#1815000
1!
1;
1<
1q
0r
1A
#1820000
0!
0;
0<
#1825000
1!
1;
1<
1r
1C
0B
0A
#1830000
0!
0;
0<
#1835000
1!
1;
1<
0v
0q
0r
0j
1W
0C
0k
0L
1A
08
1g
0'
1h
17
1(
#1840000
0!
0;
0<
#1845000
1!
1;
1<
1r
1B
0A
#1850000
0!
0;
0<
#1855000
1!
1;
1<
1q
0r
1A
#1860000
0!
0;
0<
#1865000
1!
1;
1<
1r
1C
0B
0A
#1870000
0!
0;
0<
#1875000
1!
1;
1<
0w
0q
0r
0f
1X
0C
0M
1A
0l
0g
1d
16
1)
0h
07
0(
#1880000
0!
0;
0<
#1885000
1!
1;
1<
1r
1B
0A
#1890000
0!
0;
0<
#1895000
1!
1;
1<
1q
0r
1A
#1900000
0!
0;
0<
#1905000
1!
1;
1<
1r
1C
0B
0A
#1910000
0!
0;
0<
#1915000
1!
1;
1<
0x
0q
0r
0\
0Z
0C
1`
0N
1A
15
1*
0d
06
0)
#1920000
0!
0;
0<
#1925000
1!
1;
1<
1r
1B
0A
#1930000
0!
0;
0<
#1935000
1!
1;
1<
1q
0r
1A
#1940000
0!
0;
0<
#1945000
1!
1;
1<
1r
1C
0B
0A
#1950000
0!
0;
0<
#1955000
1!
1;
1<
0y
0q
0r
0_
1\
0C
0O
1A
0`
1]
14
05
0*
1+
#1960000
0!
0;
0<
#1965000
1!
1;
1<
1r
1B
0A
#1970000
0!
0;
0<
#1975000
1!
1;
1<
1q
0r
1A
#1980000
0!
0;
0<
#1985000
1!
1;
1<
1r
1C
0B
0A
#1990000
0!
0;
0<
#1995000
1!
1;
1<
0z
0q
0r
1^
0\
1Y
0C
0P
1A
0]
1[
13
04
0+
1,
