juan_sdp/Tarea1/simulation/qsim/lights_game.msim.vcd
$comment
	File created using the following command:
		vcd file lights_game.msim.vcd -direction
$end
$date
	Thu Oct 21 09:57:28 2021
$end
$version
	ModelSim Version 10.5b
$end
$timescale
	1ps
$end

$scope module lights_game_vlg_vec_tst $end
$var reg 1 ! clk $end
$var reg 1 " enable $end
$var reg 1 # reset $end
$var wire 1 $ leds [7] $end
$var wire 1 % leds [6] $end
$var wire 1 & leds [5] $end
$var wire 1 ' leds [4] $end
$var wire 1 ( leds [3] $end
$var wire 1 ) leds [2] $end
$var wire 1 * leds [1] $end
$var wire 1 + leds [0] $end

$scope module i1 $end
$var wire 1 , gnd $end
$var wire 1 - vcc $end
$var wire 1 . unknown $end
$var tri1 1 / devclrn $end
$var tri1 1 0 devpor $end
$var tri1 1 1 devoe $end
$var wire 1 2 leds[0]~output_o $end
$var wire 1 3 leds[1]~output_o $end
$var wire 1 4 leds[2]~output_o $end
$var wire 1 5 leds[3]~output_o $end
$var wire 1 6 leds[4]~output_o $end
$var wire 1 7 leds[5]~output_o $end
$var wire 1 8 leds[6]~output_o $end
$var wire 1 9 leds[7]~output_o $end
$var wire 1 : clk~input_o $end
$var wire 1 ; clk~inputclkctrl_outclk $end
$var wire 1 < reset~input_o $end
$var wire 1 = reg_7|PR~4_combout $end
$var wire 1 > enable~input_o $end
$var wire 1 ? counter_leds|count[0]~0_combout $end
$var wire 1 @ counter_leds|Add0~0_combout $end
$var wire 1 A counter_leds|count[1]~1_combout $end
$var wire 1 B reg_7|PR[6]~1_combout $end
$var wire 1 C reg_7|PR~5_combout $end
$var wire 1 D reg_7|PR~7_combout $end
$var wire 1 E reg_7|PR~6_combout $end
$var wire 1 F reg_7|PR~3_combout $end
$var wire 1 G reg_7|PR~2_combout $end
$var wire 1 H reg_7|PR~0_combout $end
$var wire 1 I Decoder0~0_combout $end
$var wire 1 J Decoder0~1_combout $end
$var wire 1 K leds_aux~0_combout $end
$var wire 1 L leds_aux~1_combout $end
$var wire 1 M leds_aux~2_combout $end
$var wire 1 N leds_aux~3_combout $end
$var wire 1 O leds_aux~4_combout $end
$var wire 1 P leds_aux~5_combout $end
$var wire 1 Q leds_aux~6_combout $end
$var wire 1 R leds_aux~7_combout $end
$var wire 1 S leds_aux~8_combout $end
$var wire 1 T leds_aux~9_combout $end
$var wire 1 U leds_aux~10_combout $end
$var wire 1 V Decoder0~2_combout $end
$var wire 1 W Decoder0~3_combout $end
$var wire 1 X leds_aux [7] $end
$var wire 1 Y leds_aux [6] $end
$var wire 1 Z leds_aux [5] $end
$var wire 1 [ leds_aux [4] $end
$var wire 1 \ leds_aux [3] $end
$var wire 1 ] leds_aux [2] $end
$var wire 1 ^ leds_aux [1] $end
$var wire 1 _ leds_aux [0] $end
$var wire 1 ` reg_7|PR [6] $end
$var wire 1 a reg_7|PR [5] $end
$var wire 1 b reg_7|PR [4] $end
$var wire 1 c reg_7|PR [3] $end
$var wire 1 d reg_7|PR [2] $end
$var wire 1 e reg_7|PR [1] $end
$var wire 1 f reg_7|PR [0] $end
$var wire 1 g counter_leds|count [1] $end
$var wire 1 h counter_leds|count [0] $end
$upscope $end
$upscope $end
$enddefinitions $end
#0
$dumpvars
0!
1"
1#
0+
0*
0)
0(
0'
0&
0%
0$
0,
1-
x.
1/
10
11
02
03
04
05
06
07
08
09
0:
0;
1<
1=
1>
1?
0@
1A
0B
0C
0D
0E
0F
0G
0H
0I
0J
0K
0L
0M
0N
0O
0P
0Q
0R
0S
0T
0U
1V
1W
0_
0^
0]
0\
0[
0Z
0Y
0X
0f
0e
0d
0c
0b
0a
0`
0h
0g
$end
#5000
1!
1:
1;
1h
1X
19
1$
1@
0?
#10000
0!
0:
0;
#15000
1!
1:
1;
1g
0h
1?
#20000
0!
0:
0;
#25000
1!
1:
1;
1h
1B
0@
0?
#30000
0!
0:
0;
#35000
1!
1:
1;
1`
0g
0h
0V
1T
0B
1C
1?
0W
1U
#40000
0!
0:
0;
#45000
1!
1:
1;
1h
0X
1Y
18
09
0$
1%
1@
0?
#50000
0!
0:
0;
#55000
1!
1:
1;
1g
0h
1?
#60000
0!
0:
0;
#65000
1!
1:
1;
1h
1B
0@
0?
#70000
0!
0:
0;
#75000
1!
1:
1;
1a
0g
0h
1M
0B
0U
1D
1?
1S
#80000
0!
0:
0;
#85000
1!
1:
1;
1h
0Y
1Z
17
08
0%
1&
1@
0?
#90000
0!
0:
0;
#95000
1!
1:
1;
1g
0h
1?
#100000
0!
0:
0;
#105000
1!
1:
1;
1h
1B
0@
0?
#110000
0!
0:
0;
#115000
1!
1:
1;
1b
0g
0h
1O
0B
0S
1E
1?
1P
1R
#120000
0!
0:
0;
#125000
1!
1:
1;
1h
0Z
1[
16
07
0&
1'
1@
0?
#130000
0!
0:
0;
#135000
1!
1:
1;
1g
0h
1?
#140000
0!
0:
0;
#145000
1!
1:
1;
1h
1B
0@
0?
#150000
0!
0:
0;
#155000
1!
1:
1;
1c
0g
0h
1I
0B
0R
1Q
1F
1?
#160000
0!
0:
0;
#165000
1!
1:
1;
1h
0[
1\
15
06
0'
1(
1@
0?
#170000
0!
0:
0;
#175000
1!
1:
1;
1g
0h
1?
#180000
0!
0:
0;
#185000
1!
1:
1;
1h
1B
0@
0?
#190000
0!
0:
0;
#195000
1!
1:
1;
1d
0g
0h
0T
0O
0B
1N
1G
1?
0P
0Q
#200000
0!
0:
0;
#205000
1!
1:
1;
1h
0\
1]
14
05
0(
1)
1@
0?
#210000
0!
0:
0;
#215000
1!
1:
1;
1g
0h
1?
#220000
0!
0:
0;
#225000
1!
1:
1;
1h
1B
0@
0?
#230000
0!
0:
0;
#235000
1!
1:
1;
1e
0g
0h
0M
1K
0B
1H
1?
0N
1L
#240000
0!
0:
0;
#245000
1!
1:
1;
1h
0]
1^
13
04
0)
1*
1@
0?
#250000
0!
0:
0;
#255000
1!
1:
1;
1g
0h
1?
#260000
0!
0:
0;
#265000
1!
1:
1;
1h
1B
0@
0?
#270000
0!
0:
0;
#275000
1!
1:
1;
1f
0g
0h
0K
0B
1J
0=
1?
0L
#280000
0!
0:
0;
#285000
1!
1:
1;
1h
0^
1_
12
03
0*
1+
1@
0?
#290000
0!
0:
0;
#295000
1!
1:
1;
1g
0h
1?
#300000
0!
0:
0;
#305000
1!
1:
1;
1h
1B
0@
0?
#310000
0!
0:
0;
#315000
1!
1:
1;
0`
0g
0h
1K
0I
0B
0C
1?
1L
0J
#320000
0!
0:
0;
#325000
1!
1:
1;
1h
1^
0_
02
13
1*
0+
1@
0?
#330000
0!
0:
0;
#335000
1!
1:
1;
1g
0h
1?
#340000
0!
0:
0;
#345000
1!
1:
1;
1h
1B
0@
0?
#350000
0!
0:
0;
#355000
1!
1:
1;
0a
0g
0h
1M
0B
0L
0D
1?
1N
#360000
0!
0:
0;
#365000
1!
1:
1;
1h
1]
0^
03
14
1)
0*
1@
0?
#370000
0!
0:
0;
#375000
1!
1:
1;
1g
0h
1?
#380000
0!
0:
0;
#385000
1!
1:
1;
1h
1B
0@
0?
#390000
0!
0:
0;
#395000
1!
1:
1;
0b
0g
0h
1O
0B
0N
0E
1?
1P
1Q
#400000
0!
0:
0;
#405000
1!
1:
1;
1h
1\
0]
04
15
1(
0)
1@
0?
#410000
0!
0:
0;
#415000
1!
1:
1;
1g
0h
1?
#420000
0!
0:
0;
#425000
1!
1:
1;
1h
1B
0@
0?
#430000
0!
0:
0;
#435000
1!
1:
1;
0c
0g
0h
0B
1R
0Q
0F
1?
#440000
0!
0:
0;
#445000
1!
1:
1;
1h
1[
0\
05
16
1'
0(
1@
0?
#450000
0!
0:
0;
#455000
1!
1:
1;
1g
0h
1?
#460000
0!
0:
0;
#465000
1!
1:
1;
1h
1B
0@
0?
#470000
0!
0:
0;
#475000
1!
1:
1;
0d
0g
0h
0O
0K
0B
1S
0G
1?
0P
0R
#480000
0!
0:
0;
#485000
1!
1:
1;
1h
1Z
0[
06
17
1&
0'
1@
0?
#490000
0!
0:
0;
#495000
1!
1:
1;
1g
0h
1?
#500000
0!
0:
0;
#505000
1!
1:
1;
1h
1B
0@
0?
#510000
0!
0:
0;
#515000
1!
1:
1;
0e
0g
0h
1T
0M
0B
0H
1?
1U
0S
#520000
0!
0:
0;
#525000
1!
1:
1;
1h
1Y
0Z
07
18
1%
0&
1@
0?
#530000
0!
0:
0;
#535000
1!
1:
1;
1g
0h
1?
#540000
0!
0:
0;
#545000
1!
1:
1;
1h
1B
0@
0?
#550000
0!
0:
0;
#555000
1!
1:
1;
0f
0g
0h
1V
0T
0B
1=
1?
1W
0U
#560000
0!
0:
0;
#565000
1!
1:
1;
1h
1X
0Y
08
19
1$
0%
1@
0?
#570000
0!
0:
0;
#575000
1!
1:
1;
1g
0h
1?
#580000
0!
0:
0;
#585000
1!
1:
1;
1h
1B
0@
0?
#590000
0!
0:
0;
#595000
1!
1:
1;
1`
0g
0h
0V
1T
0B
1C
1?
0W
1U
#600000
0!
0:
0;
#605000
1!
1:
1;
1h
0X
1Y
18
09
0$
1%
1@
0?
#610000
0!
0:
0;
#615000
1!
1:
1;
1g
0h
1?
#620000
0!
0:
0;
#625000
1!
1:
1;
1h
1B
0@
0?
#630000
0!
0:
0;
#635000
1!
1:
1;
1a
0g
0h
1M
0B
0U
1D
1?
1S
#640000
0!
0:
0;
#645000
1!
1:
1;
1h
0Y
1Z
17
08
0%
1&
1@
0?
#650000
0!
0:
0;
#655000
1!
1:
1;
1g
0h
1?
#660000
0!
0:
0;
#665000
1!
1:
1;
1h
1B
0@
0?
#670000
0!
0:
0;
#675000
1!
1:
1;
1b
0g
0h
1O
0B
0S
1E
1?
1P
1R
#680000
0!
0:
0;
#685000
1!
1:
1;
1h
0Z
1[
16
07
0&
1'
1@
0?
#690000
0!
0:
0;
#695000
1!
1:
1;
1g
0h
1?
#700000
0!
0:
0;
#705000
1!
1:
1;
1h
1B
0@
0?
#710000
0!
0:
0;
#715000
1!
1:
1;
1c
0g
0h
1I
0B
0R
1Q
1F
1?
#720000
0!
0:
0;
#725000
1!
1:
1;
1h
0[
1\
15
06
0'
1(
1@
0?
#730000
0!
0:
0;
#735000
1!
1:
1;
1g
0h
1?
#740000
0!
0:
0;
#745000
1!
1:
1;
1h
1B
0@
0?
#750000
0!
0:
0;
#755000
1!
1:
1;
1d
0g
0h
0T
0O
0B
1N
1G
1?
0P
0Q
#760000
0!
0:
0;
#765000
1!
1:
1;
1h
0\
1]
14
05
0(
1)
1@
0?
#770000
0!
0:
0;
#775000
1!
1:
1;
1g
0h
1?
#780000
0!
0:
0;
#785000
1!
1:
1;
1h
1B
0@
0?
#790000
0!
0:
0;
#795000
1!
1:
1;
1e
0g
0h
0M
1K
0B
1H
1?
0N
1L
#800000
0!
0:
0;
#805000
1!
1:
1;
1h
0]
1^
13
04
0)
1*
1@
0?
#810000
0!
0:
0;
#815000
1!
1:
1;
1g
0h
1?
#820000
0!
0:
0;
#825000
1!
1:
1;
1h
1B
0@
0?
#830000
0!
0:
0;
#835000
1!
1:
1;
1f
0g
0h
0K
0B
1J
0=
1?
0L
#840000
0!
0:
0;
#845000
1!
1:
1;
1h
0^
1_
12
03
0*
1+
1@
0?
#850000
0!
0:
0;
#855000
1!
1:
1;
1g
0h
1?
#860000
0!
0:
0;
#865000
1!
1:
1;
1h
1B
0@
0?
#870000
0!
0:
0;
#875000
1!
1:
1;
0`
0g
0h
1K
0I
0B
0C
1?
1L
0J
#880000
0!
0:
0;
#885000
1!
1:
1;
1h
1^
0_
02
13
1*
0+
1@
0?
#890000
0!
0:
0;
#895000
1!
1:
1;
1g
0h
1?
#900000
0!
0:
0;
#905000
1!
1:
1;
1h
1B
0@
0?
#910000
0!
0:
0;
#915000
1!
1:
1;
0a
0g
0h
1M
0B
0L
0D
1?
1N
#920000
0!
0:
0;
#925000
1!
1:
1;
1h
1]
0^
03
14
1)
0*
1@
0?
#930000
0!
0:
0;
#935000
1!
1:
1;
1g
0h
1?
#940000
0!
0:
0;
#945000
1!
1:
1;
1h
1B
0@
0?
#950000
0!
0:
0;
#955000
1!
1:
1;
0b
0g
0h
1O
0B
0N
0E
1?
1P
1Q
#960000
0!
0:
0;
#965000
1!
1:
1;
1h
1\
0]
04
15
1(
0)
1@
0?
#970000
0!
0:
0;
#975000
1!
1:
1;
1g
0h
1?
#980000
0!
0:
0;
#985000
1!
1:
1;
1h
1B
0@
0?
#990000
0!
0:
0;
#995000
1!
1:
1;
0c
0g
0h
0B
1R
0Q
0F
1?
#1000000
0!
0:
0;
#1005000
1!
1:
1;
1h
1[
0\
05
16
1'
0(
1@
0?
#1010000
0!
0:
0;
#1015000
1!
1:
1;
1g
0h
1?
#1020000
0!
0:
0;
#1025000
1!
1:
1;
1h
1B
0@
0?
#1030000
0!
0:
0;
#1035000
1!
1:
1;
0d
0g
0h
0O
0K
0B
1S
0G
1?
0P
0R
#1040000
0!
0:
0;
#1045000
1!
1:
1;
1h
1Z
0[
06
17
1&
0'
1@
0?
#1050000
0!
0:
0;
#1055000
1!
1:
1;
1g
0h
1?
#1060000
0!
0:
0;
#1065000
1!
1:
1;
1h
1B
0@
0?
#1070000
0!
0:
0;
#1075000
1!
1:
1;
0e
0g
0h
1T
0M
0B
0H
1?
1U
0S
#1080000
0!
0:
0;
#1085000
1!
1:
1;
1h
1Y
0Z
07
18
1%
0&
1@
0?
#1090000
0!
0:
0;
#1095000
1!
1:
1;
1g
0h
1?
#1100000
0#
0!
0<
0:
0;
1B
0?
#1105000
1!
1:
1;
0f
0g
0Y
08
1V
0T
0%
0@
1W
0U
#1110000
0!
0:
0;
#1115000
1!
1:
1;
#1120000
0!
0:
0;
#1125000
1!
1:
1;
#1130000
0!
0:
0;
#1135000
1!
1:
1;
#1140000
0!
0:
0;
#1145000
1!
1:
1;
#1150000
0!
0:
0;
#1155000
1!
1:
1;
#1160000
0!
0:
0;
#1165000
1!
1:
1;
#1170000
0!
0:
0;
#1175000
1!
1:
1;
#1180000
0!
0:
0;
#1185000
1!
1:
1;
#1190000
0!
0:
0;
#1195000
1!
1:
1;
#1200000
0!
0:
0;
#1205000
1!
1:
1;
#1210000
0!
0:
0;
#1215000
1!
1:
1;
#1220000
0!
0:
0;
#1225000
1!
1:
1;
#1230000
0!
0:
0;
#1235000
1!
1:
1;
#1240000
1#
0!
1<
0:
0;
0B
1?
1=
#1245000
1!
1:
1;
1h
1X
19
1$
1@
0?
#1250000
0!
0:
0;
#1255000
1!
1:
1;
1g
0h
1?
#1260000
0!
0:
0;
#1265000
1!
1:
1;
1h
1B
0@
0?
#1270000
0!
0:
0;
#1275000
1!
1:
1;
1`
0g
0h
0V
1T
0B
1C
1?
0W
1U
#1280000
0!
0:
0;
#1285000
1!
1:
1;
1h
0X
1Y
18
09
0$
1%
1@
0?
#1290000
0!
0:
0;
#1295000
1!
1:
1;
1g
0h
1?
#1300000
0!
0:
0;
#1305000
1!
1:
1;
1h
1B
0@
0?
#1310000
0!
0:
0;
#1315000
1!
1:
1;
1a
0g
0h
1M
0B
0U
1D
1?
1S
#1320000
0!
0:
0;
#1325000
1!
1:
1;
1h
0Y
1Z
17
08
0%
1&
1@
0?
#1330000
0!
0:
0;
#1335000
1!
1:
1;
1g
0h
1?
#1340000
0!
0:
0;
#1345000
1!
1:
1;
1h
1B
0@
0?
#1350000
0!
0:
0;
#1355000
1!
1:
1;
1b
0g
0h
1O
0B
0S
1E
1?
1P
1R
#1360000
0!
0:
0;
#1365000
1!
1:
1;
1h
0Z
1[
16
07
0&
1'
1@
0?
#1370000
0!
0:
0;
#1375000
1!
1:
1;
1g
0h
1?
#1380000
0!
0:
0;
#1385000
1!
1:
1;
1h
1B
0@
0?
#1390000
0!
0:
0;
#1395000
1!
1:
1;
1c
0g
0h
1I
0B
0R
1Q
1F
1?
#1400000
0!
0:
0;
#1405000
1!
1:
1;
1h
0[
1\
15
06
0'
1(
1@
0?
#1410000
0!
0:
0;
#1415000
1!
1:
1;
1g
0h
1?
#1420000
0!
0:
0;
#1425000
1!
1:
1;
1h
1B
0@
0?
#1430000
0!
0:
0;
#1435000
1!
1:
1;
1d
0g
0h
0T
0O
0B
1N
1G
1?
0P
0Q
#1440000
0!
0:
0;
#1445000
1!
1:
1;
1h
0\
1]
14
05
0(
1)
1@
0?
#1450000
0!
0:
0;
#1455000
1!
1:
1;
1g
0h
1?
#1460000
0!
0:
0;
#1465000
1!
1:
1;
1h
1B
0@
0?
#1470000
0!
0:
0;
#1475000
1!
1:
1;
1e
0g
0h
0M
1K
0B
1H
1?
0N
1L
#1480000
0!
0:
0;
#1485000
1!
1:
1;
1h
0]
1^
13
04
0)
1*
1@
0?
#1490000
0!
0:
0;
#1495000
1!
1:
1;
1g
0h
1?
#1500000
0!
0:
0;
#1505000
1!
1:
1;
1h
1B
0@
0?
#1510000
0!
0:
0;
#1515000
1!
1:
1;
1f
0g
0h
0K
0B
1J
0=
1?
0L
#1520000
0!
0:
0;
#1525000
1!
1:
1;
1h
0^
1_
12
03
0*
1+
1@
0?
#1530000
0!
0:
0;
#1535000
1!
1:
1;
1g
0h
1?
#1540000
0!
0:
0;
#1545000
1!
1:
1;
1h
1B
0@
0?
#1550000
0!
0:
0;
#1555000
1!
1:
1;
0`
0g
0h
1K
0I
0B
0C
1?
1L
0J
#1560000
0!
0:
0;
#1565000
1!
1:
1;
1h
1^
0_
02
13
1*
0+
1@
0?
#1570000
0!
0:
0;
#1575000
1!
1:
1;
1g
0h
1?
#1580000
0!
0:
0;
#1585000
1!
1:
1;
1h
1B
0@
0?
#1590000
0!
0:
0;
#1595000
1!
1:
1;
0a
0g
0h
1M
0B
0L
0D
1?
1N
#1600000
0!
0:
0;
#1605000
1!
1:
1;
1h
1]
0^
03
14
1)
0*
1@
0?
#1610000
0!
0:
0;
#1615000
1!
1:
1;
1g
0h
1?
#1620000
0!
0:
0;
#1625000
1!
1:
1;
1h
1B
0@
0?
#1630000
0!
0:
0;
#1635000
1!
1:
1;
0b
0g
0h
1O
0B
0N
0E
1?
1P
1Q
#1640000
0!
0:
0;
#1645000
1!
1:
1;
1h
1\
0]
04
15
1(
0)
1@
0?
#1650000
0!
0:
0;
#1655000
1!
1:
1;
1g
0h
1?
#1660000
0!
0:
0;
#1665000
1!
1:
1;
1h
1B
0@
0?
#1670000
0!
0:
0;
#1675000
1!
1:
1;
0c
0g
0h
0B
1R
0Q
0F
1?
#1680000
0!
0:
0;
#1685000
1!
1:
1;
1h
1[
0\
05
16
1'
0(
1@
0?
#1690000
0!
0:
0;
#1695000
1!
1:
1;
1g
0h
1?
#1700000
0!
0:
0;
#1705000
1!
1:
1;
1h
1B
0@
0?
#1710000
0!
0:
0;
#1715000
1!
1:
1;
0d
0g
0h
0O
0K
0B
1S
0G
1?
0P
0R
#1720000
0#
0!
0<
0:
0;
1B
0H
0?
#1725000
1!
1:
1;
0f
0e
0[
06
1V
0M
0'
1W
0S
#1730000
0!
0:
0;
#1735000
1!
1:
1;
#1740000
0!
0:
0;
#1745000
1!
1:
1;
#1750000
0!
0:
0;
#1755000
1!
1:
1;
#1760000
1#
0!
1<
0:
0;
0B
1?
1=
#1765000
1!
1:
1;
1h
1X
19
1$
1@
0?
#1770000
0!
0:
0;
#1775000
1!
1:
1;
1g
0h
1?
#1780000
0!
0:
0;
#1785000
1!
1:
1;
1h
1B
0@
0?
#1790000
0!
0:
0;
#1795000
1!
1:
1;
1`
0g
0h
0V
1T
0B
1C
1?
0W
1U
#1800000
0!
0:
0;
#1805000
1!
1:
1;
1h
0X
1Y
18
09
0$
1%
1@
0?
#1810000
0!
0:
0;
#1815000
1!
1:
1;
1g
0h
1?
#1820000
0!
0:
0;
#1825000
1!
1:
1;
1h
1B
0@
0?
#1830000
0!
0:
0;
#1835000
1!
1:
1;
1a
0g
0h
1M
0B
0U
1D
1?
1S
#1840000
0!
0:
0;
#1845000
1!
1:
1;
1h
0Y
1Z
17
08
0%
1&
1@
0?
#1850000
0!
0:
0;
#1855000
1!
1:
1;
1g
0h
1?
#1860000
0!
0:
0;
#1865000
1!
1:
1;
1h
1B
0@
0?
#1870000
0!
0:
0;
#1875000
1!
1:
1;
1b
0g
0h
1O
0B
0S
1E
1?
1P
1R
#1880000
0!
0:
0;
#1885000
1!
1:
1;
1h
0Z
1[
16
07
0&
1'
1@
0?
#1890000
0!
0:
0;
#1895000
1!
1:
1;
1g
0h
1?
#1900000
0!
0:
0;
#1905000
1!
1:
1;
1h
1B
0@
0?
#1910000
0!
0:
0;
#1915000
1!
1:
1;
1c
0g
0h
1I
0B
0R
1Q
1F
1?
#1920000
0!
0:
0;
#1925000
1!
1:
1;
1h
0[
1\
15
06
0'
1(
1@
0?
#1930000
0!
0:
0;
#1935000
1!
1:
1;
1g
0h
1?
#1940000
0!
0:
0;
#1945000
1!
1:
1;
1h
1B
0@
0?
#1950000
0!
0:
0;
#1955000
1!
1:
1;
1d
0g
0h
0T
0O
0B
1N
1G
1?
0P
0Q
#1960000
0!
0:
0;
#1965000
1!
1:
1;
1h
0\
1]
14
05
0(
1)
1@
0?
#1970000
0!
0:
0;
#1975000
1!
1:
1;
1g
0h
1?
#1980000
0!
0:
0;
#1985000
1!
1:
1;
1h
1B
0@
0?
#1990000
0!
0:
0;
#1995000
1!
1:
1;
1e
0g
0h
0M
1K
0B
1H
1?
0N
1L
