juan_sdp/Tarea1/simulation/qsim/lights_game.msim.vcd
$comment
	File created using the following command:
		vcd file lights_game.msim.vcd -direction
$end
$date
	Thu Oct 14 10:52:18 2021
$end
$version
	ModelSim Version 10.5b
$end
$timescale
	1ps
$end

$scope module lights_game_vlg_vec_tst $end
$var reg 1 ! clk $end
$var reg 1 " enable $end
$var reg 1 # reset $end
$var reg 1 $ up_down $end
$var wire 1 % leds [7] $end
$var wire 1 & leds [6] $end
$var wire 1 ' leds [5] $end
$var wire 1 ( leds [4] $end
$var wire 1 ) leds [3] $end
$var wire 1 * leds [2] $end
$var wire 1 + leds [1] $end
$var wire 1 , leds [0] $end

$scope module i1 $end
$var wire 1 - gnd $end
$var wire 1 . vcc $end
$var wire 1 / unknown $end
$var tri1 1 0 devclrn $end
$var tri1 1 1 devpor $end
$var tri1 1 2 devoe $end
$var wire 1 3 leds[0]~output_o $end
$var wire 1 4 leds[1]~output_o $end
$var wire 1 5 leds[2]~output_o $end
$var wire 1 6 leds[3]~output_o $end
$var wire 1 7 leds[4]~output_o $end
$var wire 1 8 leds[5]~output_o $end
$var wire 1 9 leds[6]~output_o $end
$var wire 1 : leds[7]~output_o $end
$var wire 1 ; clk~input_o $end
$var wire 1 < clk~inputclkctrl_outclk $end
$var wire 1 = reset~input_o $end
$var wire 1 > reg_14|PR~14_combout $end
$var wire 1 ? up_down~input_o $end
$var wire 1 @ enable~input_o $end
$var wire 1 A counter_leds|count[0]~0_combout $end
$var wire 1 B counter_leds|Add0~0_combout $end
$var wire 1 C reg_14|PR[0]~1_combout $end
$var wire 1 D reg_14|PR~7_combout $end
$var wire 1 E reg_14|PR~10_combout $end
$var wire 1 F reg_14|PR~9_combout $end
$var wire 1 G reg_14|PR~8_combout $end
$var wire 1 H reg_14|PR~13_combout $end
$var wire 1 I reg_14|PR~12_combout $end
$var wire 1 J reg_14|PR~11_combout $end
$var wire 1 K reg_14|PR~4_combout $end
$var wire 1 L reg_14|PR~3_combout $end
$var wire 1 M reg_14|PR~6_combout $end
$var wire 1 N reg_14|PR~5_combout $end
$var wire 1 O reg_14|PR~2_combout $end
$var wire 1 P reg_14|PR~0_combout $end
$var wire 1 Q Equal5~0_combout $end
$var wire 1 R Equal0~0_combout $end
$var wire 1 S Equal1~0_combout $end
$var wire 1 T Equal1~1_combout $end
$var wire 1 U Equal7~0_combout $end
$var wire 1 V Equal13~0_combout $end
$var wire 1 W Equal9~0_combout $end
$var wire 1 X Equal0~5_combout $end
$var wire 1 Y Equal5~1_combout $end
$var wire 1 Z WideNor0~9_combout $end
$var wire 1 [ Equal8~0_combout $end
$var wire 1 \ Equal6~0_combout $end
$var wire 1 ] WideNor0~7_combout $end
$var wire 1 ^ Equal0~2_combout $end
$var wire 1 _ Equal0~1_combout $end
$var wire 1 ` Equal0~3_combout $end
$var wire 1 a Equal0~4_combout $end
$var wire 1 b WideNor0~8_combout $end
$var wire 1 c Equal11~0_combout $end
$var wire 1 d Equal11~1_combout $end
$var wire 1 e Equal3~0_combout $end
$var wire 1 f WideNor0~4_combout $end
$var wire 1 g Equal13~1_combout $end
$var wire 1 h Equal1~2_combout $end
$var wire 1 i WideNor0~2_combout $end
$var wire 1 j WideNor0~5_combout $end
$var wire 1 k Equal12~0_combout $end
$var wire 1 l Equal9~1_combout $end
$var wire 1 m WideNor0~3_combout $end
$var wire 1 n WideNor0~6_combout $end
$var wire 1 o leds~0_combout $end
$var wire 1 p leds[0]~reg0_q $end
$var wire 1 q WideOr5~combout $end
$var wire 1 r leds[1]~reg0_q $end
$var wire 1 s WideOr4~combout $end
$var wire 1 t leds[2]~reg0_q $end
$var wire 1 u WideOr3~combout $end
$var wire 1 v leds[3]~reg0_q $end
$var wire 1 w WideOr2~combout $end
$var wire 1 x leds[4]~reg0_q $end
$var wire 1 y WideOr1~combout $end
$var wire 1 z leds[5]~reg0_q $end
$var wire 1 { WideOr0~combout $end
$var wire 1 | leds[6]~reg0_q $end
$var wire 1 } leds~1_combout $end
$var wire 1 ~ leds[7]~reg0_q $end
$var wire 1 !! counter_leds|count [1] $end
$var wire 1 "! counter_leds|count [0] $end
$var wire 1 #! reg_14|PR [13] $end
$var wire 1 $! reg_14|PR [12] $end
$var wire 1 %! reg_14|PR [11] $end
$var wire 1 &! reg_14|PR [10] $end
$var wire 1 '! reg_14|PR [9] $end
$var wire 1 (! reg_14|PR [8] $end
$var wire 1 )! reg_14|PR [7] $end
$var wire 1 *! reg_14|PR [6] $end
$var wire 1 +! reg_14|PR [5] $end
$var wire 1 ,! reg_14|PR [4] $end
$var wire 1 -! reg_14|PR [3] $end
$var wire 1 .! reg_14|PR [2] $end
$var wire 1 /! reg_14|PR [1] $end
$var wire 1 0! reg_14|PR [0] $end
$upscope $end
$upscope $end
$enddefinitions $end
#0
$dumpvars
0!
1"
1#
1$
0,
0+
0*
0)
0(
0'
0&
0%
0-
1.
x/
10
11
12
03
04
05
06
07
08
09
0:
0;
0<
1=
0>
1?
1@
1A
0B
0C
0D
0E
0F
0G
0H
1I
0J
0K
0L
0M
0N
0O
0P
0Q
1R
0S
0T
0U
0V
0W
1X
0Y
1Z
0[
0\
1]
1^
1_
0`
0a
0b
0c
0d
0e
1f
0g
0h
1i
1j
0k
0l
1m
0n
1o
0p
1q
0r
1s
0t
1u
0v
1w
0x
1y
0z
1{
0|
1}
0~
0"!
0!!
00!
0/!
0.!
0-!
0,!
0+!
0*!
0)!
0(!
0'!
0&!
0%!
0$!
0#!
$end
#10000
1!
1;
1<
1"!
1~
1|
1z
1x
1v
1t
1r
1p
13
14
15
16
17
18
19
1:
1%
1&
1'
1(
1)
1*
1+
1,
1B
0A
#20000
0!
0;
0<
#30000
1!
1;
1<
1!!
0"!
1C
1A
#40000
0!
0;
0<
#50000
1!
1;
1<
1#!
1"!
1J
0C
0B
0A
#60000
0!
0;
0<
#70000
1!
1;
1<
0!!
0"!
1A
#80000
0!
0;
0<
#90000
1!
1;
1<
1"!
1B
0A
#100000
0!
0;
0<
#110000
1!
1;
1<
1!!
0"!
1C
1A
#120000
0!
0;
0<
#130000
1!
1;
1<
1$!
1"!
0^
1S
0C
1K
0B
0A
1T
1h
0i
1n
0}
0y
0w
0u
0s
0q
0o
#140000
0!
0;
0<
#150000
1!
1;
1<
0!!
0"!
0~
0z
0x
0v
0t
0r
0p
03
04
05
06
07
08
0:
0%
0'
0(
0)
0*
0+
0,
1A
#160000
0!
0;
0<
#170000
1!
1;
1<
1"!
1B
0A
#180000
0!
0;
0<
#190000
1!
1;
1<
1!!
0"!
1C
1A
#200000
0!
0;
0<
#210000
1!
1;
1<
1%!
1"!
0m
1i
0C
1L
0B
0A
1y
0{
#220000
0!
0;
0<
#230000
1!
1;
1<
0!!
0"!
0|
1z
18
09
0&
1'
1A
#240000
0!
0;
0<
#250000
1!
1;
1<
1"!
1B
0A
#260000
0!
0;
0<
#270000
1!
1;
1<
1!!
0"!
1C
1A
#280000
0!
0;
0<
#290000
1!
1;
1<
1&!
1"!
0h
1e
0C
1M
0B
0A
1m
0f
0y
1w
#300000
0!
0;
0<
#310000
1!
1;
1<
0!!
0"!
0z
1x
17
08
0'
1(
1A
#320000
0!
0;
0<
#330000
1!
1;
1<
1"!
1B
0A
#340000
0!
0;
0<
#350000
1!
1;
1<
1!!
0"!
1C
1A
#360000
0!
0;
0<
#370000
1!
1;
1<
1'!
1"!
0j
1f
0C
1N
0B
0A
1u
0w
#380000
0!
0;
0<
#390000
1!
1;
1<
0!!
0"!
0x
1v
16
07
0(
1)
1A
#400000
0!
0;
0<
#410000
1!
1;
1<
1"!
1B
0A
#420000
0!
0;
0<
#430000
1!
1;
1<
1!!
0"!
1C
1A
#440000
0!
0;
0<
#450000
1!
1;
1<
1(!
1"!
0_
1Q
1O
0C
0B
0A
0e
1Y
1j
0Z
0n
1b
0u
1s
#460000
0!
0;
0<
#470000
1!
1;
1<
0!!
0"!
0v
1t
15
06
0)
1*
1A
#480000
0!
0;
0<
#490000
1!
1;
1<
1"!
1B
0A
#500000
0!
0;
0<
#510000
1!
1;
1<
1!!
0"!
1C
1A
#520000
0!
0;
0<
#530000
1!
1;
1<
1)!
1"!
1\
0Y
1P
0C
0B
0A
0]
1Z
1q
0s
#540000
0!
0;
0<
#550000
1!
1;
1<
0!!
0"!
0t
1r
14
05
0*
1+
1A
#560000
0!
0;
0<
#570000
1!
1;
1<
1"!
1B
0A
#580000
0!
0;
0<
#590000
1!
1;
1<
1!!
0"!
1C
1A
#600000
0!
0;
0<
#610000
1!
1;
1<
1*!
1"!
0\
1U
1>
0C
0B
0A
1]
1o
0q
#620000
0!
0;
0<
#630000
1!
1;
1<
0!!
0"!
0r
1p
13
04
0+
1,
1A
#640000
0!
0;
0<
#650000
1!
1;
1<
1"!
1B
0A
#660000
0!
0;
0<
#670000
1!
1;
1<
1!!
0"!
1C
1A
#680000
0!
0;
0<
#690000
1!
1;
1<
1+!
1"!
1V
0T
0C
1D
0B
0A
1[
0U
0]
0b
0o
1b
1q
1}
1{
1y
1w
1u
1s
1o
0}
0{
0y
0w
0u
0s
0o
#700000
0!
0;
0<
#710000
1!
1;
1<
0!!
0"!
1r
0p
03
14
1+
0,
1A
#720000
0!
0;
0<
#730000
1!
1;
1<
1"!
1B
0A
#740000
0!
0;
0<
#750000
1!
1;
1<
1!!
0"!
1C
1A
#760000
0!
0;
0<
#770000
1!
1;
1<
1,!
1"!
1W
0R
0C
1E
0B
0A
1l
0Z
0[
1]
1s
0q
#780000
0!
0;
0<
#790000
1!
1;
1<
0!!
0"!
1t
0r
04
15
1*
0+
1A
#800000
0!
0;
0<
#810000
1!
1;
1<
1"!
1B
0A
#820000
0!
0;
0<
#830000
1!
1;
1<
1!!
0"!
1C
1A
#840000
0!
0;
0<
#850000
1!
1;
1<
1-!
1"!
1c
0X
0C
1F
0B
0A
1d
1Z
0j
0b
0s
1n
1u
1}
1{
1y
1w
1s
1q
1o
0}
0{
0y
0w
0s
0q
0o
#860000
0!
0;
0<
#870000
1!
1;
1<
0!!
0"!
1v
0t
05
16
1)
0*
1A
#880000
0!
0;
0<
#890000
1!
1;
1<
1"!
1B
0A
#900000
0!
0;
0<
#910000
1!
1;
1<
1!!
0"!
1C
1A
#920000
0!
0;
0<
#930000
1!
1;
1<
1.!
1"!
1j
0f
0C
1G
0B
0A
0u
1w
#940000
0!
0;
0<
#950000
1!
1;
1<
0!!
0"!
1x
0v
06
17
1(
0)
1A
#960000
0!
0;
0<
#970000
1!
1;
1<
1"!
1B
0A
#980000
0!
0;
0<
#990000
1!
1;
1<
1!!
0"!
1C
1A
#1000000
0!
0;
0<
#1010000
1!
1;
1<
1/!
1"!
1k
0c
1H
0C
0B
0A
0m
0d
1f
1y
0w
#1020000
0!
0;
0<
#1030000
1!
1;
1<
0!!
0"!
1z
0x
07
18
1'
0(
1A
#1040000
0!
0;
0<
#1050000
1!
1;
1<
1"!
1B
0A
#1060000
0!
0;
0<
#1070000
1!
1;
1<
1!!
0"!
1C
1A
#1080000
0!
0;
0<
#1090000
1!
1;
1<
10!
1"!
0l
1g
0S
0I
0C
0B
0A
1m
0i
0y
1{
#1100000
0!
0;
0<
#1110000
1!
1;
1<
0!!
0"!
1|
0z
08
19
1&
0'
1A
#1120000
0!
0;
0<
#1130000
1!
1;
1<
1"!
1B
0A
#1140000
0!
0;
0<
#1150000
1!
1;
1<
1!!
0"!
1C
1A
#1160000
0!
0;
0<
#1170000
1!
1;
1<
0#!
1"!
0V
0J
0C
0B
0A
0W
1i
0n
0{
1}
1{
1y
1w
1u
1s
1q
1o
#1180000
0!
0;
0<
#1190000
1!
1;
1<
0!!
0"!
1~
1z
1x
1v
1t
1r
1p
13
14
15
16
17
18
1:
1%
1'
1(
1)
1*
1+
1,
1A
#1200000
0!
0;
0<
#1210000
1!
1;
1<
1"!
1B
0A
#1220000
0!
0;
0<
#1230000
1!
1;
1<
1!!
0"!
1C
1A
#1240000
0!
0;
0<
#1250000
1!
1;
1<
0$!
1"!
0C
0K
0B
0A
#1260000
0!
0;
0<
#1270000
1!
1;
1<
0!!
0"!
1A
#1280000
0!
0;
0<
#1290000
1!
1;
1<
1"!
1B
0A
#1300000
0!
0;
0<
#1310000
1!
1;
1<
1!!
0"!
1C
1A
#1320000
0!
0;
0<
#1330000
1!
1;
1<
0%!
1"!
0Q
0C
0L
0B
0A
#1340000
0!
0;
0<
#1350000
1!
1;
1<
0!!
0"!
1A
#1360000
0!
0;
0<
#1370000
1!
1;
1<
1"!
1B
0A
#1380000
0!
0;
0<
#1390000
1!
1;
1<
1!!
0"!
1C
1A
#1400000
0!
0;
0<
#1410000
1!
1;
1<
0&!
1"!
0C
0M
0B
0A
#1420000
0!
0;
0<
#1430000
1!
1;
1<
0!!
0"!
1A
#1440000
0!
0;
0<
#1450000
1!
1;
1<
1"!
1B
0A
#1460000
0!
0;
0<
#1470000
1!
1;
1<
1!!
0"!
1C
1A
#1480000
0!
0;
0<
#1490000
1!
1;
1<
0'!
1"!
1^
0C
0N
0B
0A
#1500000
0!
0;
0<
#1510000
1!
1;
1<
0!!
0"!
1A
#1520000
0!
0;
0<
#1530000
1!
1;
1<
1"!
1B
0A
#1540000
0!
0;
0<
#1550000
1!
1;
1<
1!!
0"!
1C
1A
#1560000
0!
0;
0<
#1570000
1!
1;
1<
0(!
1"!
0O
0C
0B
0A
#1580000
0!
0;
0<
#1590000
1!
1;
1<
0!!
0"!
1A
#1600000
0!
0;
0<
#1610000
1!
1;
1<
1"!
1B
0A
#1620000
0!
0;
0<
#1630000
1!
1;
1<
1!!
0"!
1C
1A
#1640000
0!
0;
0<
#1650000
1!
1;
1<
0)!
1"!
0P
0C
0B
0A
#1660000
0!
0;
0<
#1670000
1!
1;
1<
0!!
0"!
1A
#1680000
0!
0;
0<
#1690000
1!
1;
1<
1"!
1B
0A
#1700000
0!
0;
0<
#1710000
1!
1;
1<
1!!
0"!
1C
1A
#1720000
0!
0;
0<
#1730000
1!
1;
1<
0*!
1"!
1_
0>
0C
0B
0A
1`
#1740000
0!
0;
0<
#1750000
1!
1;
1<
0!!
0"!
1A
#1760000
0!
0;
0<
#1770000
1!
1;
1<
1"!
1B
0A
#1780000
0!
0;
0<
#1790000
1!
1;
1<
1!!
0"!
1C
1A
#1800000
0!
0;
0<
#1810000
1!
1;
1<
0+!
1"!
0C
0D
0B
0A
#1820000
0!
0;
0<
#1830000
1!
1;
1<
0!!
0"!
1A
#1840000
0!
0;
0<
#1850000
1!
1;
1<
1"!
1B
0A
#1860000
0!
0;
0<
#1870000
1!
1;
1<
1!!
0"!
1C
1A
#1880000
0!
0;
0<
#1890000
1!
1;
1<
0,!
1"!
0C
0E
0B
0A
#1900000
0!
0;
0<
#1910000
1!
1;
1<
0!!
0"!
1A
#1920000
0!
0;
0<
#1930000
1!
1;
1<
1"!
1B
0A
#1940000
0!
0;
0<
#1950000
1!
1;
1<
1!!
0"!
1C
1A
#1960000
0!
0;
0<
#1970000
1!
1;
1<
0-!
1"!
0k
0g
0C
0F
0B
0A
#1980000
0!
0;
0<
#1990000
1!
1;
1<
0!!
0"!
1A
