juan_sdp/Shift_reg/simulation/qsim/n_shift_reg.msim.vcd
$comment
	File created using the following command:
		vcd file n_shift_reg.msim.vcd -direction
$end
$date
	Sat Oct 09 20:48:59 2021
$end
$version
	ModelSim Version 10.5b
$end
$timescale
	1ps
$end

$scope module n_shift_reg_vlg_vec_tst $end
$var reg 1 ! SR_in $end
$var reg 1 " clk $end
$var reg 1 # enable $end
$var reg 1 $ rst $end
$var wire 1 % PR [6] $end
$var wire 1 & PR [5] $end
$var wire 1 ' PR [4] $end
$var wire 1 ( PR [3] $end
$var wire 1 ) PR [2] $end
$var wire 1 * PR [1] $end
$var wire 1 + PR [0] $end
$var wire 1 , SR_out $end

$scope module i1 $end
$var wire 1 - gnd $end
$var wire 1 . vcc $end
$var wire 1 / unknown $end
$var tri1 1 0 devclrn $end
$var tri1 1 1 devpor $end
$var tri1 1 2 devoe $end
$var wire 1 3 PR[0]~output_o $end
$var wire 1 4 PR[1]~output_o $end
$var wire 1 5 PR[2]~output_o $end
$var wire 1 6 PR[3]~output_o $end
$var wire 1 7 PR[4]~output_o $end
$var wire 1 8 PR[5]~output_o $end
$var wire 1 9 PR[6]~output_o $end
$var wire 1 : SR_out~output_o $end
$var wire 1 ; clk~input_o $end
$var wire 1 < clk~inputclkctrl_outclk $end
$var wire 1 = rst~input_o $end
$var wire 1 > SR_in~input_o $end
$var wire 1 ? PR~7_combout $end
$var wire 1 @ enable~input_o $end
$var wire 1 A PR[0]~1_combout $end
$var wire 1 B PR[6]~reg0_q $end
$var wire 1 C PR~6_combout $end
$var wire 1 D PR[5]~reg0_q $end
$var wire 1 E PR~5_combout $end
$var wire 1 F PR[4]~reg0_q $end
$var wire 1 G PR~4_combout $end
$var wire 1 H PR[3]~reg0_q $end
$var wire 1 I PR~3_combout $end
$var wire 1 J PR[2]~reg0_q $end
$var wire 1 K PR~2_combout $end
$var wire 1 L PR[1]~reg0_q $end
$var wire 1 M PR~0_combout $end
$var wire 1 N PR[0]~reg0_q $end
$upscope $end
$upscope $end
$enddefinitions $end
#0
$dumpvars
0!
0"
1#
1$
0+
0*
0)
0(
0'
0&
0%
0,
0-
1.
x/
10
11
12
03
04
05
06
07
08
09
0:
0;
0<
1=
0>
0?
1@
1A
0B
0C
0D
0E
0F
0G
0H
0I
0J
0K
0L
0M
0N
$end
#20000
1"
1;
1<
#40000
1!
0"
1>
0;
0<
1?
#60000
1"
1;
1<
1B
19
1%
1C
#80000
0!
0"
0>
0;
0<
0?
#100000
1"
1;
1<
1D
0B
09
18
1&
0%
1E
0C
#120000
1!
0"
1>
0;
0<
1?
#140000
1"
1;
1<
1F
0D
1B
19
08
17
1'
0&
1%
1G
0E
1C
#160000
0!
0"
0>
0;
0<
0?
#180000
1"
1;
1<
1H
0F
1D
0B
09
18
07
16
1(
0'
1&
0%
1I
0G
1E
0C
#200000
1!
0"
1>
0;
0<
1?
#220000
1"
1;
1<
1J
0H
1F
0D
1B
19
08
17
06
15
1)
0(
1'
0&
1%
1K
0I
1G
0E
1C
#240000
0!
0"
0>
0;
0<
0?
#260000
1"
1;
1<
1L
0J
1H
0F
1D
0B
09
18
07
16
05
14
1*
0)
1(
0'
1&
0%
1M
0K
1I
0G
1E
0C
#280000
1!
0"
1>
0;
0<
1?
#300000
1"
1;
1<
1N
0L
1J
0H
1F
0D
1B
19
08
17
06
15
04
13
1:
1,
1+
0*
1)
0(
1'
0&
1%
0M
1K
0I
1G
0E
1C
#320000
0!
0"
0>
0;
0<
0?
#340000
1"
1;
1<
0N
1L
0J
1H
0F
1D
0B
09
18
07
16
05
14
03
0:
0,
0+
1*
0)
1(
0'
1&
0%
1M
0K
1I
0G
1E
0C
#360000
1!
0"
1>
0;
0<
1?
#380000
1"
1;
1<
1N
0L
1J
0H
1F
0D
1B
19
08
17
06
15
04
13
1:
1,
1+
0*
1)
0(
1'
0&
1%
0M
1K
0I
1G
0E
1C
#400000
0!
0"
0>
0;
0<
0?
#420000
1"
1;
1<
0N
1L
0J
1H
0F
1D
0B
09
18
07
16
05
14
03
0:
0,
0+
1*
0)
1(
0'
1&
0%
1M
0K
1I
0G
1E
0C
#440000
1!
0"
1>
0;
0<
1?
#460000
1"
1;
1<
1N
0L
1J
0H
1F
0D
1B
19
08
17
06
15
04
13
1:
1,
1+
0*
1)
0(
1'
0&
1%
0M
1K
0I
1G
0E
1C
#480000
0!
0"
0>
0;
0<
0?
#500000
1"
1;
1<
0N
1L
0J
1H
0F
1D
0B
09
18
07
16
05
14
03
0:
0,
0+
1*
0)
1(
0'
1&
0%
1M
0K
1I
0G
1E
0C
#520000
1!
0"
1>
0;
0<
1?
#540000
1"
1;
1<
1N
0L
1J
0H
1F
0D
1B
19
08
17
06
15
04
13
1:
1,
1+
0*
1)
0(
1'
0&
1%
0M
1K
0I
1G
0E
1C
#560000
0!
0"
0>
0;
0<
0?
#580000
1"
1;
1<
0N
1L
0J
1H
0F
1D
0B
09
18
07
16
05
14
03
0:
0,
0+
1*
0)
1(
0'
1&
0%
1M
0K
1I
0G
1E
0C
#600000
1!
0"
1>
0;
0<
1?
#620000
1"
1;
1<
1N
0L
1J
0H
1F
0D
1B
19
08
17
06
15
04
13
1:
1,
1+
0*
1)
0(
1'
0&
1%
0M
1K
0I
1G
0E
1C
#640000
0!
0"
0>
0;
0<
0?
#660000
1"
1;
1<
0N
1L
0J
1H
0F
1D
0B
09
18
07
16
05
14
03
0:
0,
0+
1*
0)
1(
0'
1&
0%
1M
0K
1I
0G
1E
0C
#680000
1!
0"
1>
0;
0<
1?
#700000
1"
1;
1<
1N
0L
1J
0H
1F
0D
1B
19
08
17
06
15
04
13
1:
1,
1+
0*
1)
0(
1'
0&
1%
0M
1K
0I
1G
0E
1C
#720000
0!
0"
0>
0;
0<
0?
#740000
1"
1;
1<
0N
1L
0J
1H
0F
1D
0B
09
18
07
16
05
14
03
0:
0,
0+
1*
0)
1(
0'
1&
0%
1M
0K
1I
0G
1E
0C
#760000
1!
0"
1>
0;
0<
1?
#780000
1"
1;
1<
1N
0L
1J
0H
1F
0D
1B
19
08
17
06
15
04
13
1:
1,
1+
0*
1)
0(
1'
0&
1%
0M
1K
0I
1G
0E
1C
#800000
0!
0"
0>
0;
0<
0?
#820000
1"
1;
1<
0N
1L
0J
1H
0F
1D
0B
09
18
07
16
05
14
03
0:
0,
0+
1*
0)
1(
0'
1&
0%
1M
0K
1I
0G
1E
0C
#840000
1!
0"
1>
0;
0<
1?
#860000
1"
1;
1<
1N
0L
1J
0H
1F
0D
1B
19
08
17
06
15
04
13
1:
1,
1+
0*
1)
0(
1'
0&
1%
0M
1K
0I
1G
0E
1C
#880000
0!
0"
0>
0;
0<
0?
#900000
1"
1;
1<
0N
1L
0J
1H
0F
1D
0B
09
18
07
16
05
14
03
0:
0,
0+
1*
0)
1(
0'
1&
0%
1M
0K
1I
0G
1E
0C
#920000
1!
0"
1>
0;
0<
1?
#940000
1"
1;
1<
1N
0L
1J
0H
1F
0D
1B
19
08
17
06
15
04
13
1:
1,
1+
0*
1)
0(
1'
0&
1%
0M
1K
0I
1G
0E
1C
#960000
0!
0"
0>
0;
0<
0?
#980000
1"
1;
1<
0N
1L
0J
1H
0F
1D
0B
09
18
07
16
05
14
03
0:
0,
0+
1*
0)
1(
0'
1&
0%
1M
0K
1I
0G
1E
0C
