juan_sdp/Practica_FSM/simulation/qsim/Practica_FSM.msim.vcd
$comment
	File created using the following command:
		vcd file Practica_FSM.msim.vcd -direction
$end
$date
	Tue Nov 02 16:23:17 2021
$end
$version
	ModelSim Version 10.5b
$end
$timescale
	1ps
$end

$scope module Practica_FSM_vlg_vec_tst $end
$var reg 1 ! clk $end
$var reg 1 " enable $end
$var reg 1 # rst $end
$var reg 1 $ up_down $end
$var wire 1 % seq [3] $end
$var wire 1 & seq [2] $end
$var wire 1 ' seq [1] $end
$var wire 1 ( seq [0] $end

$scope module i1 $end
$var wire 1 ) gnd $end
$var wire 1 * vcc $end
$var wire 1 + unknown $end
$var tri1 1 , devclrn $end
$var tri1 1 - devpor $end
$var tri1 1 . devoe $end
$var wire 1 / seq[0]~output_o $end
$var wire 1 0 seq[1]~output_o $end
$var wire 1 1 seq[2]~output_o $end
$var wire 1 2 seq[3]~output_o $end
$var wire 1 3 clk~input_o $end
$var wire 1 4 clk~inputclkctrl_outclk $end
$var wire 1 5 up_down~input_o $end
$var wire 1 6 enable~input_o $end
$var wire 1 7 estado_actual~12_combout $end
$var wire 1 8 estado_actual~18_combout $end
$var wire 1 9 rst~input_o $end
$var wire 1 : rst~inputclkctrl_outclk $end
$var wire 1 ; estado_actual~5_q $end
$var wire 1 < estado_actual~11_combout $end
$var wire 1 = estado_actual.S1~0_combout $end
$var wire 1 > estado_actual~8_combout $end
$var wire 1 ? estado_actual~7_q $end
$var wire 1 @ estado_actual~20_combout $end
$var wire 1 A estado_actual~19_combout $end
$var wire 1 B estado_actual~6_q $end
$var wire 1 C estado_actual.S4~0_combout $end
$var wire 1 D estado_actual~13_combout $end
$var wire 1 E estado_actual~14_combout $end
$var wire 1 F estado_actual~15_combout $end
$var wire 1 G estado_actual~16_combout $end
$var wire 1 H estado_actual~17_combout $end
$var wire 1 I estado_actual~4_q $end
$var wire 1 J WideOr5~0_combout $end
$var wire 1 K seq~0_combout $end
$upscope $end
$upscope $end
$enddefinitions $end
#0
$dumpvars
0!
1"
1#
1$
0(
1'
0&
0%
0)
1*
x+
1,
1-
1.
0/
10
01
02
03
04
15
16
07
08
19
1:
0;
0<
1=
0>
0?
1@
0A
0B
0C
1D
0E
0F
1G
1H
0I
1J
0K
$end
#10000
1!
13
14
1I
0J
1E
0=
1/
0G
1(
1A
18
#20000
0!
03
04
#30000
1!
13
14
1B
1;
00
1F
0D
1<
0'
1K
11
0E
1&
08
#40000
0!
03
04
#50000
1!
13
14
0;
10
0F
1C
0<
1'
1>
0H
0A
#60000
0!
03
04
#70000
1!
13
14
0I
0B
1?
12
1J
1D
0C
1%
0K
01
0/
0(
0&
0>
#80000
0!
03
04
#90000
1!
13
14
0?
02
1=
0%
1G
1H
#100000
0!
03
04
#110000
1!
13
14
1I
0J
1E
0=
1/
0G
1(
1A
18
#120000
0!
03
04
#130000
1!
13
14
1B
1;
00
1F
0D
1<
0'
1K
11
0E
1&
08
#140000
0!
03
04
#150000
1!
13
14
0;
10
0F
1C
0<
1'
1>
0H
0A
#160000
0!
03
04
#170000
1!
13
14
0I
0B
1?
12
1J
1D
0C
1%
0K
01
0/
0(
0&
0>
#180000
0!
03
04
#190000
1!
13
14
0?
02
1=
0%
1G
1H
#200000
0!
03
04
#210000
1!
13
14
1I
0J
1E
0=
1/
0G
1(
1A
18
#220000
0!
03
04
#230000
1!
13
14
1B
1;
00
1F
0D
1<
0'
1K
11
0E
1&
08
#240000
0!
03
04
#250000
1!
13
14
0;
10
0F
1C
0<
1'
1>
0H
0A
#260000
0!
03
04
#270000
1!
13
14
0I
0B
1?
12
1J
1D
0C
1%
0K
01
0/
0(
0&
0>
#280000
0!
03
04
#290000
1!
13
14
0?
02
1=
0%
1G
1H
#300000
0!
03
04
#310000
1!
13
14
1I
0J
1E
0=
1/
0G
1(
1A
18
#320000
0!
03
04
#330000
1!
13
14
1B
1;
00
1F
0D
1<
0'
1K
11
0E
1&
08
#340000
0#
0!
09
03
0:
04
0;
0B
0I
10
0F
1D
1=
0<
1J
1'
0K
01
0/
1G
0(
0&
0H
0A
1H
#350000
1!
13
14
#360000
0!
03
04
#370000
1#
1!
19
13
1:
14
1I
0J
1E
0=
1/
0G
1(
1A
18
#380000
0!
03
04
#390000
1!
13
14
1B
1;
00
1F
0D
1<
0'
1K
11
0E
1&
08
#400000
0!
03
04
#410000
1!
13
14
0;
10
0F
1C
0<
1'
1>
0H
0A
#420000
0!
03
04
#430000
1!
13
14
0I
0B
1?
12
1J
1D
0C
1%
0K
01
0/
0(
0&
0>
#440000
0!
03
04
#450000
1!
13
14
0?
02
1=
0%
1G
1H
#460000
0!
03
04
#470000
1!
13
14
1I
0J
1E
0=
1/
0G
1(
1A
18
#480000
0!
03
04
#490000
1!
13
14
1B
1;
00
1F
0D
1<
0'
1K
11
0E
1&
08
#500000
0!
03
04
#510000
1!
13
14
0;
10
0F
1C
0<
1'
1>
0H
0A
#520000
0!
03
04
#530000
0#
1!
09
13
0:
14
0B
0I
1D
0C
1J
1=
0K
01
0/
1G
0(
0&
0>
1H
#540000
0!
03
04
#550000
1!
13
14
#560000
1#
0!
19
03
1:
04
#570000
1!
13
14
1I
0J
1E
0=
1/
0G
1(
1A
18
#580000
0!
03
04
#590000
1!
13
14
1B
1;
00
1F
0D
1<
0'
1K
11
0E
1&
08
#600000
0!
03
04
#610000
1!
13
14
0;
10
0F
1C
0<
1'
1>
0H
0A
#620000
0!
03
04
#630000
1!
13
14
0I
0B
1?
12
1J
1D
0C
1%
0K
01
0/
0(
0&
0>
#640000
0!
03
04
#650000
1!
13
14
0?
02
1=
0%
1G
1H
#660000
0!
03
04
#670000
1!
13
14
1I
0J
1E
0=
1/
0G
1(
1A
18
#680000
0!
03
04
#690000
1!
13
14
1B
1;
00
1F
0D
1<
0'
1K
11
0E
1&
08
#700000
0!
03
04
#710000
1!
13
14
0;
10
0F
1C
0<
1'
1>
0H
0A
#720000
0!
03
04
#730000
1!
13
14
0I
0B
1?
12
1J
1D
0C
1%
0K
01
0/
0(
0&
0>
#740000
0!
03
04
#750000
1!
13
14
0?
02
1=
0%
1G
1H
#760000
0!
03
04
#770000
1!
13
14
1I
0J
1E
0=
1/
0G
1(
1A
18
#780000
0!
03
04
#790000
1!
13
14
1B
1;
00
1F
0D
1<
0'
1K
11
0E
1&
08
#800000
0!
03
04
#810000
1!
13
14
0;
10
0F
1C
0<
1'
1>
0H
0A
#820000
0!
03
04
#830000
1!
13
14
0I
0B
1?
12
1J
1D
0C
1%
0K
01
0/
0(
0&
0>
#840000
0!
03
04
#850000
1!
13
14
0?
02
1=
0%
1G
1H
#860000
0!
03
04
#870000
1!
13
14
1I
0J
1E
0=
1/
0G
1(
1A
18
#880000
0!
03
04
#890000
1!
13
14
1B
1;
00
1F
0D
1<
0'
1K
11
0E
1&
08
#900000
0!
03
04
#910000
1!
13
14
0;
10
0F
1C
0<
1'
1>
0H
0A
#920000
0!
03
04
#930000
1!
13
14
0I
0B
1?
12
1J
1D
0C
1%
0K
01
0/
0(
0&
0>
#940000
0!
03
04
#950000
1!
13
14
0?
02
1=
0%
1G
1H
#960000
0!
03
04
#970000
1!
13
14
1I
0J
1E
0=
1/
0G
1(
1A
18
#980000
0!
03
04
#990000
1!
13
14
1B
1;
00
1F
0D
1<
0'
1K
11
0E
1&
08
